0.186,0.256,0.266,0.246,0.256,0.246,0.256,0.246,0.236,0.226,0.216,0.246
-0.235,-0.395,-0.385,-0.375,-0.385,-0.375,-0.345,-0.335,-0.375,-0.385,-0.505,-0.495
0.497,0.487,0.477,0.497,0.487,0.477,0.497,0.487,0.497,0.507,0.467,0.477
-0.30948,0.032873,0.24594,0.17016,0.13045,0.22728,0.2505,0.27234,0.1141,0.5638,0.72429,0.66507
-0.28673,-0.28834,-0.30031,-0.2655,-0.24598,-0.26268,-0.22589,-0.20748,-0.19313,-0.14262,-0.22494,-0.31694
-0.45,-0.44394,-0.41171,-0.43974,-0.46063,-0.43412,-0.4198,-0.40277,-0.43445,-0.34911,-0.32685,-0.45203
-0.78709,-0.84776,-0.82451,-0.84094,-0.84279,-0.8312,-0.84261,-0.84886,-0.87232,-0.73479,-0.56389,-0.50289
45
0
42
