0.208,0.218,0.478,0.588,0.598
0.171,-0.439,-0.209,-0.219,-0.219
0.409,0.399,0.389,0.329,0.329
0.87,0.9746,0.9485,0.96301,0.93543
0.48492,0.097121,0.19082,0.026944,-0.073591
-0.050467,0.18346,-0.20506,-0.22417,-0.31488
0.073506,0.084067,0.14793,0.14709,0.14287
32
0
43
