0.33,0.36,0.26,0.25,0.26,0.25,0.29,0.22,0.12,0.31,0.35,0.34,0.13,0.23,0.22,0.29,0.8,0.83,0.82,0.82,0.28,0.14,0.82,0.35,0.35,0.66,0.78,0.68,0.31,0.44,0.31,0.73,0.35,0.63,0.67,0.34,0.6,0.74,0.58,0.78,0.28,0.81,0.79,0.77
-0.16,0.14,0.28,0.3,0.3,-0.29,0.21,-0.28,0.35,0.17,-0.1,-0.12,-0.34,0.26,-0.27,0.21,0.07,0.03,-0.08,0.01,0.22,-0.33,-0.01,0.05,0.05,-0.48,-0.2,0.45,0.76,-0.69,-0.16,0.37,-0.74,-0.52,-0.47,-0.75,0.56,0.35,-0.58,0.24,0.77,-0.16,-0.23,-0.28
0,0,0,0,0,0,0,0,0,0,0,0,0,0,0,0,0,0,0,0,0,0,0,0,0,0,0,0,0,0,0,0,0,0,0,0,0,0,0,0,0,0,0,0
0.99494,0.92757,0.83094,0.81096,0.80609,0.97152,0.93222,0.91721,0.99725,0.96965,0.98981,0.98556,0.84397,0.99999,0.67623,0.94394,0.021591,0.10378,0.1614,0.10224,0.95293,0.81354,0.11512,0.99847,0.9994,0.41274,0.17552,0.19416,0.45772,0.5764,0.85149,0.13205,0.62822,0.43928,0.41572,0.64691,0.25866,0.1093,0.48065,0.049539,0.48506,0.2112,0.25263,0.28864
0,0,0,0,0,0,0,0,0,0,0,0,0,0,0,0,0,0,0,0,0,0,0,0,0,0,0,0,0,0,0,0,0,0,0,0,0,0,0,0,0,0,0,0
0,0,0,0,0,0,0,0,0,0,0,0,0,0,0,0,0,0,0,0,0,0,0,0,0,0,0,0,0,0,0,0,0,0,0,0,0,0,0,0,0,0,0,0
-0.10046,0.37365,0.55637,0.58511,0.5918,-0.23697,0.3619,-0.39841,0.074136,0.24449,-0.14239,-0.16935,-0.5364,0.0042034,-0.73669,0.33013,0.99977,0.9946,0.98689,0.99476,0.3032,-0.58151,0.99335,0.055245,0.034512,0.91085,0.98448,-0.98097,-0.8891,0.81717,-0.52436,-0.99124,0.77803,0.89835,0.90949,0.76256,-0.96597,-0.99401,0.87691,-0.99877,-0.87448,0.97744,0.96756,0.95744
