0.34,0.22,0.35,0.35,0.35,0.29,0.13,0.29,0.31,0.28,0.33,0.14,0.25,0.36,0.27,0.66,0.74,0.58,0.67,0.73,0.6,0.31,0.44,0.63,0.36,0.77,0.78,0.25,0.79,0.82,0.26,0.82,0.81,0.28,0.34,0.68,0.83,0.82,0.8,0.78,0.31,0.22,0.23,0.12
-0.12,-0.28,0.05,0.05,-0.1,0.21,-0.34,0.21,0.17,0.22,-0.17,-0.33,-0.29,0.14,0.28,-0.48,0.35,-0.58,-0.47,0.37,0.56,0.76,-0.69,-0.52,-0.74,-0.28,0.24,0.3,-0.23,-0.08,0.3,-0.01,-0.16,0.77,-0.75,0.45,0.03,0.01,0.07,-0.2,-0.16,-0.27,0.26,0.35
0,0,0,0,0,0,0,0,0,0,0,0,0,0,0,0,0,0,0,0,0,0,0,0,0,0,0,0,0,0,0,0,0,0,0,0,0,0,0,0,0,0,0,0
0.98556,0.91721,0.99847,0.9994,0.98981,0.94394,0.84397,0.95147,0.97422,0.95384,0.99494,0.81354,0.97152,0.92757,0.83094,0.41274,0.1093,0.48065,0.41572,0.13205,0.25866,0.45772,0.5764,0.43928,0.62822,0.28864,0.049539,0.81096,0.25263,0.1614,0.80609,0.11512,0.2112,0.48506,0.64691,0.19416,0.10378,0.10224,0.021591,0.17552,0.85149,0.67623,0.99999,0.99725
0,0,0,0,0,0,0,0,0,0,0,0,0,0,0,0,0,0,0,0,0,0,0,0,0,0,0,0,0,0,0,0,0,0,0,0,0,0,0,0,0,0,0,0
0,0,0,0,0,0,0,0,0,0,0,0,0,0,0,0,0,0,0,0,0,0,0,0,0,0,0,0,0,0,0,0,0,0,0,0,0,0,0,0,0,0,0,0
-0.16935,-0.39841,0.055245,0.034512,-0.14239,0.33013,-0.5364,0.30775,0.22562,0.30031,-0.10046,-0.58151,-0.23697,0.37365,0.55637,0.91085,-0.99401,0.87691,0.90949,-0.99124,-0.96597,-0.8891,0.81717,0.89835,0.77803,0.95744,-0.99877,0.58511,0.96756,0.98689,0.5918,0.99335,0.97744,-0.87448,0.76256,-0.98097,0.9946,0.99476,0.99977,0.98448,-0.52436,-0.73669,0.0042034,0.074136
