0.99,0.89,0.91,0.57,0.97,0.89,0.65,0.76,0.05,0.6,0.1,0.88,0.45,0.43,0.83,0.88,0.58,0.53,0.44,0.34,0.78,0.79,0.57,0.45,0.75,0.14,0.49,0.03,0.92,0.58,0.34,0.05,0.62,0.24,0.65,0.01,0.29,0.9,0.96,0.59,0.8,0.92,0.98,0.31,0.1,0.55,0.8,0.58,0.7,0.08
0.87,-0.21,0.31,0.49,-0.94,-0.54,-0.45,0.57,-0.35,-0.1,-0.1,-0.56,-0.89,0.51,0.08,-0.41,0.3,-0.58,-0.89,0.04,0.57,-0.55,-0.43,-0.44,0.38,-0.86,0.78,0.95,-0.34,-0.95,-0.51,0.36,-0.87,-0.79,-0.35,0.95,0.12,-0.19,-0.5,0.27,0.2,-0.45,-0.78,-0.82,-0.44,-0.92,-0.73,-0.57,-0.94,-0.27
0,0,0,0,0,0,0,0,0,0,0,0,0,0,0,0,0,0,0,0,0,0,0,0,0,0,0,0,0,0,0,0,0,0,0,0,0,0,0,0,0,0,0,0,0,0,0,0,0,0
0.99871,0.95361,0.10978,0.99725,0.99825,0.8277,0.36775,0.066543,0.65938,0.99902,0.57417,0.13121,0.99982,0.1806,0.75562,0.22953,0.17411,0.80554,0.59847,0.22798,0.45734,0.51121,0.59847,0.29704,0.37556,0.76535,0.77391,0.82489,1,0.099833,0.19533,0.34759,0.61437,0.81143,0.35695,0.99492,0.74464,0.71736,0.21335,0.99999,0.99879,0.25862,0.9474,0.79862,6.1232e-17,0.39861,0.9551,0.031587,0.58233,0.99687
0,0,0,0,0,0,0,0,0,0,0,0,0,0,0,0,0,0,0,0,0,0,0,0,0,0,0,0,0,0,0,0,0,0,0,0,0,0,0,0,0,0,0,0,0,0,0,0,0,0
0,0,0,0,0,0,0,0,0,0,0,0,0,0,0,0,0,0,0,0,0,0,0,0,0,0,0,0,0,0,0,0,0,0,0,0,0,0,0,0,0,0,0,0,0,0,0,0,0,0
-0.050774,-0.30105,-0.99396,0.074136,0.059169,-0.56117,0.92992,0.99778,-0.75181,0.044189,0.81873,0.99135,0.019202,0.98356,0.65502,0.9733,-0.98473,0.59254,0.80114,-0.97367,-0.88929,0.85946,0.80114,0.95486,-0.9268,0.64361,-0.63329,-0.5653,-0.00079633,-0.995,0.98074,-0.93765,0.78901,0.58445,-0.93412,-0.10063,-0.66746,-0.69671,-0.97698,0.0042037,0.049184,0.96598,-0.32006,-0.60183,-1,-0.91712,-0.29628,0.9995,0.81295,0.079121
