0.45,0.38,0.55,0.59,0.62,0.38,0.48,0.55,0.49,0.6,0.05,0.55,0.56,0.53,0.4,0.61,0.48,0.65,0.15,0.34,0.54,0.67,0.11,0.53,0.33,0.63,0.33,0.58,0.13,0.27,0.46,0.54,0.57,0.08,0.63,0.61,0.44,0.52,0.43,0.46,0.46,0.06,0.02,0.49,0.58,0.69,0.27,0.41,0.4,0.45
-0.26,-0.55,0.38,-0.26,0.31,0.38,0.25,0.38,-0.42,0.25,0.55,0.04,0.02,-0.08,-0.48,-0.14,-0.49,0.04,0.53,0.44,0.37,0.12,0.55,-0.18,0.46,0.15,0.46,-0.32,-0.63,0.42,0.36,0.17,-0.05,0.57,0.08,-0.17,-0.39,0.28,-0.4,-0.46,-0.18,-0.64,0.58,0.37,0.39,0.04,-0.63,-0.41,-0.42,0.44
0,0,0,0,0,0,0,0,0,0,0,0,0,0,0,0,0,0,0,0,0,0,0,0,0,0,0,0,0,0,0,0,0,0,0,0,0,0,0,0,0,0,0,0,0,0,0,0,0,0
0.41687,0.90468,0.33722,0.68478,0.21978,0.87479,0.78021,0.35156,0.83415,0.43017,0.97946,0.62176,0.59393,0.56518,0.84501,0.61831,0.80554,0.47178,0.9557,0.88446,0.39768,0.49392,0.94249,0.38586,0.86492,0.57478,0.86099,0.8252,0.95557,0.94194,0.70683,0.63094,0.46014,0.93878,0.62175,0.78042,0.084898,0.6486,0.19377,0.92944,0.52694,0.9999,0.95575,0.44582,0.31133,0.58301,0.95291,0.85282,0.86572,0.20694
0,0,0,0,0,0,0,0,0,0,0,0,0,0,0,0,0,0,0,0,0,0,0,0,0,0,0,0,0,0,0,0,0,0,0,0,0,0,0,0,0,0,0,0,0,0,0,0,0,0
0,0,0,0,0,0,0,0,0,0,0,0,0,0,0,0,0,0,0,0,0,0,0,0,0,0,0,0,0,0,0,0,0,0,0,0,0,0,0,0,0,0,0,0,0,0,0,0,0,0
-0.90897,0.42608,0.94142,0.72875,0.97555,-0.4845,-0.62552,0.93617,0.55154,0.90275,-0.20162,-0.78321,-0.80452,-0.82497,0.53474,0.78593,0.59254,0.88171,-0.29436,-0.46662,0.91753,0.86951,-0.33424,-0.92256,-0.5019,0.81831,-0.50862,0.56484,0.29476,-0.33579,-0.70739,-0.77584,-0.88785,-0.34452,0.78321,0.62525,-0.99639,-0.76113,-0.98105,0.36896,-0.8499,0.014203,-0.29417,0.89512,0.9503,0.81247,0.30326,0.5222,0.50052,0.97835
