0.53,0.534,0.526,0.48,0.451,0.447,0.428,0.5,0.449,0.451,0.462,0.434,0.457,0.472,0.507,0.461,0.479,0.426,0.518,0.539,0.446,0.439,0.425,0.531,0.47,0.501,0.49,0.481,0.422,0.528,0.497,0.513,0.476,0.448,0.491,0.521,0.477,0.42,0.525,0.427,0.489,0.512,0.445,0.472,0.426,0.54,0.471,0.462,0.494,0.456,0.53,0.528,0.433,0.494,0.481,0.494,0.498,0.461,0.494,0.458,0.494,0.469,0.478,0.42,0.421,0.461,0.479,0.424,0.501,0.431,0.501,0.513,0.538,0.486,0.491,0.503,0.472,0.446,0.457,0.483,0.534,0.466,0.444,0.426,0.431,0.456,0.511,0.438,0.427,0.452,0.471,0.507,0.481,0.495,0.506,0.433,0.452,0.451,0.421,0.527
0.293,0.389,0.313,0.391,0.326,0.348,0.309,0.321,0.372,0.32,0.311,0.299,0.327,0.365,0.393,0.325,0.368,0.283,0.326,0.32,0.313,0.341,0.349,0.309,0.292,0.337,0.325,0.306,0.316,0.393,0.339,0.367,0.341,0.361,0.303,0.384,0.335,0.344,0.336,0.283,0.391,0.288,0.319,0.341,0.387,0.306,0.319,0.37,0.341,0.376,0.288,0.308,0.281,0.36,0.315,0.33,0.365,0.342,0.352,0.283,0.374,0.338,0.381,0.374,0.354,0.325,0.325,0.363,0.32,0.285,0.388,0.317,0.38,0.369,0.284,0.313,0.335,0.335,0.332,0.357,0.316,0.351,0.315,0.361,0.328,0.357,0.365,0.358,0.388,0.351,0.293,0.372,0.316,0.339,0.392,0.298,0.354,0.385,0.383,0.35
0.381,0.447,0.445,0.412,0.382,0.461,0.368,0.395,0.45,0.464,0.385,0.449,0.42,0.369,0.463,0.369,0.464,0.43,0.417,0.478,0.465,0.411,0.393,0.391,0.442,0.427,0.416,0.42,0.383,0.466,0.473,0.459,0.387,0.391,0.409,0.374,0.431,0.448,0.423,0.435,0.44,0.368,0.386,0.446,0.447,0.45,0.392,0.441,0.373,0.462,0.378,0.469,0.476,0.422,0.384,0.426,0.482,0.436,0.44,0.4,0.406,0.368,0.415,0.462,0.418,0.431,0.4,0.374,0.421,0.393,0.378,0.375,0.375,0.468,0.395,0.449,0.458,0.375,0.381,0.418,0.418,0.412,0.424,0.485,0.473,0.401,0.487,0.389,0.431,0.48,0.436,0.421,0.472,0.396,0.407,0.439,0.451,0.371,0.404,0.455
0.67392,0.54661,0.7196,0.76756,0.7448,0.59023,0.57624,0.65364,0.70753,0.77222,0.70926,0.57404,0.79142,0.74185,0.51433,0.62793,0.69824,0.71319,0.72,0.82185,0.47106,0.8159,0.75444,0.72483,0.54219,0.70383,0.68848,0.59071,0.78376,0.62367,0.7538,0.52422,0.48919,0.60616,0.5903,0.66737,0.49152,0.65789,0.5399,0.67558,0.71273,0.69245,0.55465,0.4965,0.60518,0.52184,0.60214,0.48577,0.57167,0.73679,0.79626,0.64502,0.67475,0.63247,0.66484,0.75918,0.70717,0.56084,0.61384,0.77892,0.60974,0.77997,0.59297,0.67059,0.64587,0.62209,0.71982,0.76824,0.7008,0.52857,0.49238,0.70461,0.68471,0.79143,0.60302,0.40273,0.56866,0.64265,0.6087,0.68324,0.74353,0.71233,0.62891,0.78827,0.82394,0.5755,0.69052,0.68714,0.70448,0.79297,0.66582,0.60885,0.73608,0.58702,0.72368,0.775,0.57171,0.52969,0.56179,0.58156
0.056182,0.21671,0.39849,0.26327,0.16601,0.049827,0.28177,0.1784,0.22142,0.25858,0.2346,-0.028476,0.09997,0.097099,0.40863,0.10618,0.36159,0.21813,0.18741,0.19036,0.30636,0.19627,0.16145,0.24924,0.30618,0.31697,0.27401,0.30057,0.2346,0.36431,0.29722,0.25541,0.46244,0.28103,0.10569,0.29552,0.32295,0.40938,0.30197,0.38093,0.2331,0.37893,0.13847,0.35252,0.35911,0.1896,0.16912,0.45395,0.27957,0.23012,0.24068,0.39817,0.34556,0.35309,0.33812,0.28798,0.20548,0.33136,0.0085149,0.17385,0.44986,0.1071,0.31465,0.36795,0.29404,0.15187,0.29684,0.13882,0.41005,0.42737,0.46066,0.19321,0.3669,0.18889,0.49781,0.44265,0.27609,0.084823,0.17238,0.45957,0.33726,0.29201,0.48135,0.28779,0.075707,0.45465,0.23843,0.23935,0.29042,0.20607,0.3601,0.26117,0.32336,0.039854,0.069922,0.2096,0.17802,0.24986,0.48892,0.13097
-0.15131,-0.14675,-0.16467,-0.14791,0.029747,-0.16106,0.13171,0.11104,0.1378,0.063957,-0.28323,-0.099883,-0.13606,-0.0079571,-0.11511,-0.027585,-0.0063933,-0.12708,-0.047196,0.066251,-0.32472,0.13001,-0.020358,0.10092,-0.28181,-0.15896,-0.11153,-0.2403,-0.25491,-0.030838,-0.26623,0.021183,-0.15746,-0.23507,-0.14795,-0.24601,0.035379,0.079802,0.092477,0.093297,0.068797,0.13135,-0.25613,-0.24791,0.029602,-0.2793,-0.17537,-0.13739,-0.013459,0.22764,-0.23314,0.0059748,-0.066351,-0.035734,-0.15367,-0.25501,-0.023538,0.057675,-0.0448,-0.2061,-0.14725,0.025248,-0.039433,0.023049,0.18182,-0.025535,0.093031,0.085913,-0.13366,-0.091491,-0.038539,0.054915,0.037208,0.21055,-0.053282,-0.22009,0.0014194,-0.21316,-0.28095,-0.0364,-0.30729,0.059325,0.021402,-0.27991,-0.020706,-0.063963,-0.11994,-0.17665,-0.048474,0.1412,-0.038469,0.0030406,-0.011897,-0.073608,-0.084986,-0.20965,-0.030334,-0.036843,-0.076609,-0.3124
-0.72096,-0.79544,-0.54431,-0.56539,-0.64562,-0.78943,-0.75578,-0.72705,-0.6568,-0.57681,-0.60141,-0.81221,-0.58749,-0.66345,-0.74514,-0.7705,-0.6178,-0.65394,-0.66652,-0.53286,-0.76079,-0.5281,-0.63588,-0.63428,-0.72998,-0.61554,-0.66217,-0.70921,-0.51547,-0.69091,-0.52208,-0.8121,-0.72254,-0.70593,-0.78644,-0.63778,-0.808,-0.62707,-0.78024,-0.62432,-0.65798,-0.59972,-0.77948,-0.7535,-0.70987,-0.78341,-0.76031,-0.73422,-0.77127,-0.5936,-0.50367,-0.6522,-0.64877,-0.68849,-0.64811,-0.52506,-0.67612,-0.75652,-0.78811,-0.5662,-0.63574,-0.61607,-0.74016,-0.64373,-0.68069,-0.76765,-0.62056,-0.61899,-0.56822,-0.72773,-0.73748,-0.68057,-0.62863,-0.54188,-0.62106,-0.77034,-0.77485,-0.731,-0.72169,-0.56627,-0.48887,-0.63545,-0.61018,-0.46632,-0.56121,-0.67676,-0.67227,-0.66283,-0.64577,-0.55569,-0.65233,-0.74906,-0.59454,-0.80524,-0.6813,-0.55811,-0.80034,-0.80972,-0.66294,-0.73962
