-0.58924,0.3749,-0.07511,-1.5548,0.36678,0.5899,-1.7974e-33
-0.55844,0.42557,-0.10111,-1.4295,0.28592,0.7753,7.3806e-17
-0.65141,0.46576,-0.066688,-1.3716,0.44731,0.87474,3.123e-16
-0.75125,0.47567,-0.018878,-1.4031,0.631,0.89047,4.0141e-16
-0.79515,0.40408,0.023058,-1.5969,0.8714,0.64712,-2.9441e-16
-0.82009,0.36589,0.071447,-1.7078,1.0483,0.50639,-1.0539e-17
-0.7954,0.32933,0.10289,-1.7857,1.1463,0.3426,1.7565e-17
-0.72128,0.30429,0.10169,-1.8257,1.1145,0.16841,-5.5414e-17
-0.037673,0.35566,-0.60778,-1.772,0.60729,0.2249,-5.5332e-17
0.073788,0.41383,-0.73271,-1.6709,0.36194,0.38937,-5.4842e-17
0.054241,0.48795,-0.74117,-1.4981,0.24834,0.66499,-5.4842e-17
-0.020934,0.53651,-0.69721,-1.3668,0.24967,0.84064,-5.4367e-17
-0.16995,0.58781,-0.60363,-1.2115,0.33761,1.0529,1.6767e-15
-0.27097,0.62988,-0.55513,-1.1131,0.42004,1.1777,1.5365e-15
-0.40079,0.67508,-0.48483,-1.0219,0.54354,1.311,1.6586e-15
-0.50895,0.68479,-0.41783,-1.0241,0.68114,1.3446,1.5142e-15
-0.5607,0.68665,-0.39092,-1.0466,0.74677,1.3497,1.5109e-15
-0.65023,0.6697,-0.31841,-1.129,0.87771,1.3183,1.4819e-15
-0.71228,0.6247,-0.25643,-1.264,0.99532,1.2189,1.4398e-15
-0.76536,0.58308,-0.20237,-1.4027,1.1378,1.1238,1.2185e-15
-0.79146,0.52357,-0.15483,-1.5571,1.283,0.97813,7.5358e-16
-0.83466,0.50243,-0.10046,-1.6784,1.4977,0.93066,1.0894e-15
-0.80456,0.4444,-0.082268,-1.7853,1.6305,0.7809,1.3291e-15
-0.77204,0.39328,-0.030162,-1.9189,2.0307,0.62333,1.2495e-15
-0.74196,0.3717,-0.0095831,-1.9594,2.1936,0.56447,1.2636e-15
-0.27992,0.36231,-0.41254,-2.0022,2.579,0.47852,5.0411e-07
0.25473,0.48673,-0.9499,-1.9843,2.646,0.36866,0.032489
0.51014,0.67641,-1.2277,-1.932,2.4325,0.2235,0.032497
0.47459,0.60151,-1.1094,-1.8623,1.9752,0.0023395,0.030446
0.11355,0.42744,-0.57059,-1.7373,2.1802,-0.39143,0.025629
-0.00052098,0.45281,-0.40994,-1.6051,2.3295,-0.61565,0.024249
-0.30229,0.47231,-0.013483,-1.4737,2.2904,-0.84784,0.021044
-0.363,0.53876,0.050105,-1.3062,2.4364,-1.0293,0.020514
-0.46514,0.62148,0.17153,-1.1206,2.5271,-1.2282,0.019692
-0.69214,0.73538,0.57001,-0.96688,2.3956,-1.4277,0.01743
-0.76006,0.8139,0.68819,-0.83333,2.4417,-1.5302,0.016756
-0.80111,0.90304,0.8347,-0.70653,2.3873,-1.6456,0.015891
-0.81882,0.95893,0.83172,-0.57958,2.529,-1.7118,0.016379
-0.8604,1.0647,1.111,-0.46542,2.357,-1.8239,0.01453
-0.931,1.0947,1.1884,-0.47003,2.4328,-1.8048,0.014302
-1.0004,1.1323,1.2681,-0.48386,2.5025,-1.7892,0.014132
-1.1264,1.1688,1.4126,-0.61592,2.503,-1.6904,0.01337
-1.2502,1.2343,1.5548,-0.75066,2.5037,-1.582,0.012742
-1.3428,1.2922,1.6492,-0.87188,2.4767,-1.4874,0.012154
-1.4357,1.3699,1.733,-1.0004,2.4646,-1.3739,0.011548
-1.5493,1.4468,1.7913,-1.1908,2.4124,-1.1753,0.010781
-1.6188,1.5308,1.823,-1.3057,2.4091,-1.0467,0.010327
