0.16445,0.18858,0.30574,0.12963,-0.16631,-0.15115,-0.10206,-0.13801,-0.11538,-0.18794,-0.18544,0.10653,0.33408,0.2831,0.21355,0.23953,0.15961,0.25655,0.24163,0.29913,0.31943,0.15599,-0.1061,-0.18113,-0.11408,-0.10718,-0.05528,-0.014631,-0.094218,-0.12565,-0.19403,-0.098224,0.040593,0.23757,0.278,0.22205,0.21385,-0.072134,-0.15513,0.40689,0.46201,0.39173,0.29356,0.17485,-0.02682,0.02224,0.068375,0.11418,0.083088,0.057595,0.15751,-0.11435,-0.18822,-0.17577,-0.05419,0.014561,0.091549,0.23319,0.20143,0.15849,-0.19232,-0.09257,-0.062673,-0.17147,-0.23415,-0.26997,-0.36968,-0.43196,-0.4026,-0.56171,-0.60073,-0.6182,-0.56484,-0.47615,-0.50057,-0.42371,-0.33933,-0.30636,-0.26783,-0.16075,-0.056403,-0.094349,0.047941,0.057937,0.34706,0.36592,0.27667,0.21247,0.17803,0.14695,0.095264,-0.0095361,-0.051361,-0.036155,-0.065751,-0.12585,-0.16128,-0.087524,0.0079689,0.04554,0.078472,0.11231,0.15897,0.24437,0.28471,0.27369
0.66814,0.71204,0.73071,0.66192,0.71327,0.69733,0.65972,0.49832,0.46982,0.49897,0.48246,0.46684,0.55313,0.52005,0.49431,0.4985,0.35319,0.32524,0.32307,0.39415,0.40279,0.2978,0.34109,0.37322,0.33873,0.3274,0.31123,0.20543,0.19473,0.22577,0.29525,0.21291,0.15224,0.269,0.30741,0.23773,0.23918,0.23984,0.14291,0.18037,0.2571,0.18188,0.061012,0.098233,0.24893,0.18148,0.11872,0.10945,0.076063,-0.020063,0.011052,0.040099,0.14214,0.12757,0.0020737,-0.024705,0.032801,0.21365,0.14564,0.06955,-0.05439,0.10573,0.089143,-0.055766,-0.10101,-0.088076,0.0089624,0.10947,0.028544,-0.085989,-0.10554,-0.16937,-0.1597,-0.010994,0.080588,-0.073467,-0.17385,-0.16274,-0.15549,-0.018345,0.12772,0.028078,-0.15643,-0.16477,0.033868,0.083812,-0.1279,-0.21575,-0.22689,-0.22562,-0.20239,-0.058308,0.0095554,-0.074937,-0.22016,-0.1051,0.024307,-0.13549,-0.2809,-0.29156,-0.28541,-0.27855,-0.2255,-0.051036,0.033992,-0.055716
0.012285,-0.023419,-0.12059,-0.070997,0.083331,0.044762,0.0071611,-0.010736,0.0083509,0.028647,0.054788,-0.040565,-0.088823,-0.064754,-0.032881,-0.013449,0.01053,-0.0046689,-0.025275,-0.029588,-0.053945,-0.082979,-0.040426,-0.057038,-0.064385,-0.084676,-0.09637,-0.084144,-0.093968,-0.087152,-0.090097,-0.043419,0.028647,0.056697,0.079148,0.079572,0.097008,0.27143,0.23085,-0.10699,-0.096636,-0.13038,-0.19717,-0.28561,-0.34065,-0.32572,-0.30393,-0.28781,-0.31531,-0.34274,-0.25216,-0.10279,-0.15271,-0.13412,-0.024737,0.049225,0.12796,0.22085,0.21363,0.19684,0.31675,0.48852,0.48901,0.37331,0.28775,0.23993,0.12544,0.066168,0.076002,0.36702,0.31337,0.26214,0.34993,0.11749,0.090581,0.16719,0.27854,0.32488,0.39133,0.54357,0.61595,0.5807,0.28981,0.30161,0.18532,0.1911,0.080186,-0.020173,-0.07755,-0.12081,-0.21379,-0.36222,-0.4045,-0.38624,-0.2456,-0.33469,-0.37326,-0.28057,-0.11892,-0.040198,0.010032,0.063859,0.15475,0.2854,0.32566,0.31776
-0.92468,-0.86957,-0.88296,-0.88772,-0.87067,-0.90131,-0.94093,-1.1556,-1.1919,-1.1692,-1.1694,-1.1362,-1.1184,-1.139,-1.1575,-1.1525,-1.3673,-1.3868,-1.3878,-1.3109,-1.2948,-1.3553,-1.3359,-1.3512,-1.3713,-1.3845,-1.4128,-1.5659,-1.5607,-1.5253,-1.469,-1.4933,-1.5382,-1.4529,-1.4472,-1.5118,-1.5076,-1.5387,-1.7285,-1.5926,-1.5309,-1.5554,-1.6584,-1.6254,-1.5608,-1.6102,-1.6697,-1.6843,-1.6918,-1.8157,-1.8235,-1.7657,-1.6784,-1.6723,-1.736,-1.7609,-1.7086,-1.6031,-1.6641,-1.7403,-1.9381,-1.7074,-1.7214,-1.8077,-1.8479,-1.8344,-1.7745,-1.7366,-1.8046,-1.9258,-1.9298,-2.0162,-2.0145,-1.8583,-1.7894,-1.8617,-1.9287,-1.9142,-1.9057,-1.8173,-1.7579,-1.8296,-2.0237,-2.0341,-1.8403,-1.7991,-1.9231,-1.9886,-1.9961,-1.9923,-1.9732,-1.8973,-1.8766,-1.9477,-2.0854,-1.9922,-1.9029,-1.9693,-2.0557,-2.064,-2.0589,-2.055,-2.0141,-1.9092,-1.8736,-1.9547
0.0025947,-0.11612,-0.4029,-0.1034,0.31937,0.21168,0.025128,0.022534,0.040466,0.29222,0.34944,-0.067768,-0.44659,-0.23505,-0.012563,-0.0062515,0.27638,-0.036665,-0.066344,-0.30336,-0.41692,-0.076993,0.3247,0.42488,0.17212,0.089406,-0.11728,-0.2511,0.073333,0.23764,0.50185,0.30526,-0.036871,-0.4148,-0.44388,-0.21856,-0.12841,0.2808,0.61088,-0.2075,-0.46017,-0.34143,-0.09974,0.21844,0.6125,0.38845,0.15242,-0.10349,-0.08655,0.024931,-0.30014,0.10646,0.45618,0.50323,0.16344,-0.014976,-0.21588,-0.55292,-0.38619,-0.17394,0.5433,-0.29148,-0.45643,-0.17177,0.0012992,0.05094,0.35616,0.4805,0.30391,-0.10392,-0.02102,0.10595,-0.088916,0.32376,0.51717,0.34898,0.10129,0.069261,-0.01325,-0.35985,-0.53939,-0.34638,0.060864,0.047227,-0.36983,-0.49855,-0.2779,-0.10265,-0.054431,-0.040402,0.10209,0.41331,0.44351,0.30475,-0.024956,0.31799,0.51226,0.36951,0.070902,-0.0070499,-0.026961,-0.056646,-0.17407,-0.40728,-0.43702,-0.33797
1.8623,1.9596,1.9988,1.9559,2.0091,1.9484,1.8726,1.6737,1.6334,1.7048,1.7188,1.7222,1.8106,1.7173,1.6523,1.6363,1.4219,1.3928,1.416,1.5876,1.6561,1.5026,1.5753,1.5807,1.483,1.4408,1.38,1.2603,1.2666,1.3582,1.5388,1.4322,1.3181,1.5203,1.5285,1.3436,1.3141,1.2564,1.1502,1.3185,1.5139,1.4424,1.2319,1.3064,1.561,1.3687,1.2009,1.1513,1.1098,1.0013,1.0487,1.1417,1.3933,1.4317,1.2206,1.1637,1.2643,1.5541,1.3533,1.1448,0.9599,1.3688,1.4168,1.1963,1.1233,1.1512,1.3096,1.4206,1.2183,0.94792,0.90718,0.86348,0.89654,1.2413,1.4661,1.267,1.1002,1.1201,1.1228,1.323,1.4916,1.2439,0.80715,0.89765,1.3448,1.5158,1.2209,1.0913,1.0859,1.0955,1.1298,1.3357,1.3703,1.1617,0.84274,1.1963,1.4824,1.3028,1.0925,1.0795,1.0848,1.0812,1.1469,1.3816,1.4272,1.193
-1.163e-33,4.9213e-20,-1.9976e-16,-1.9976e-16,-2.0007e-16,-8.1494e-17,-7.8874e-17,-7.0189e-17,-2.1336e-16,-2.0893e-16,-2.0904e-16,-2.0926e-16,-2.0484e-16,-1.891e-16,-2.5677e-16,-2.5404e-16,-2.3516e-16,-2.184e-16,-7.4259e-17,-1.2492e-16,-1.031e-16,-1.0282e-16,-9.8813e-17,-9.8813e-17,-9.8813e-17,-1.1588e-16,-1.1588e-16,-1.1549e-16,-1.3066e-16,2.2184e-19,2.2184e-19,2.2184e-19,-5.0281e-20,2.7213e-16,4.8187e-16,4.1622e-16,6.254e-16,5.9586e-16,1.0792e-15,9.0833e-16,6.0023e-16,6.4346e-16,6.2233e-16,6.1629e-16,6.1366e-16,6.6362e-16,4.3785e-16,4.2294e-16,5.8184e-16,5.5916e-16,6.0562e-16,2.1104e-16,5.8473e-16,5.8388e-16,-2.8883e-17,-2.8883e-17,-2.0453e-16,-9.9315e-16,-9.4528e-16,-1.2548e-15,-1.1988e-15,-1.1642e-15,-1.0798e-15,-1.0026e-15,-8.8252e-16,-6.1826e-16,-1.1512e-15,-1.3239e-15,-1.2698e-15,-1.1524e-15,-1.6621e-15,-1.6721e-15,-1.5981e-15,-0.0046206,-0.0045094,-0.0043583,-0.0042106,-0.0041858,-0.0041792,-0.0040123,-0.0038691,-0.0036866,-0.0035482,-0.0035332,-0.0033719,-0.0032713,-0.0031366,-0.0030851,-0.0030828,-0.0030746,-0.0030121,-0.0029076,-0.0028749,-0.0027671,-0.002644,-0.0025335,-0.0024594,-0.0023691,-0.0022854,-0.0022878,-0.0022746,-0.0022666,-0.0022179,-0.0021527,-0.0021249,-0.0020463
