0.516,0.286,0.266,0.236,0.256,0.296,0.506
-0.456,-0.516,-0.536,-0.546,-0.516,-0.506,-0.506
0.638,0.648,0.638,0.618,0.608,0.618,0.618
0.80588,0.92195,0.92262,0.92584,0.93633,0.87175,0.83244
-0.15403,-0.22252,-0.21185,-0.19681,-0.17145,-0.15413,-0.43558
0.50399,-0.14758,-0.13342,-0.11632,-0.093473,-0.35793,-0.20115
0.26986,0.28057,0.29341,0.30092,0.2918,0.29696,0.27721
69
0
100
