0.139,0.069,0.079,0.109,0.149,0.159,0.159
0.285,-0.455,-0.505,-0.495,-0.505,-0.495,-0.495
0.413,0.373,0.393,0.383,0.373,0.383,0.373
0.46624,0.8141,0.8226,0.82394,0.85249,0.84798,0.83859
-0.04673,-0.069046,-0.085819,-0.16314,-0.16891,-0.14405,-0.12873
-0.16037,-0.19827,-0.21017,-0.18597,-0.15314,-0.22651,-0.23506
-0.86875,-0.54144,-0.52133,-0.50983,-0.47041,-0.45703,-0.47429
108
0
105
