0.268,0.278,0.288,0.298,0.298
0.114,-0.316,-0.306,-0.336,-0.346
0.474,0.284,0.294,0.254,0.074
-0.395,-0.45536,-0.48821,-0.73943,-0.56721
0.395,0.33809,0.24423,0.20999,0.11473
-0.2581,0.32761,0.31574,0.16957,0.21619
0.78825,0.75565,0.77609,0.61676,0.78636
76
0
108
