0.548,0.208,0.198,0.168
0.569,0.619,0.649,0.719
0.4,0.34,0.06,0.06
0.70291,0.63452,0.70361,0.70361
0.30147,0.28241,0.26106,0.26106
-0.16184,0.46696,0.15512,0.15512
-0.62357,-0.54733,-0.64244,-0.64244
66
0
109
