0.6,0.8,0.7,0.24,0.34,0.36,0.81,-1.0408e-17,0.5,0.68,0.63,0.66,0.63,0.32,0.51,0.71,0.7,0.04,0.54,0.76,0.82,0.05,0.84,0.78
-0.51,0.01,-0.32,0.27,-0.71,-0.13,0.13,0.39,0.62,0.45,0.42,0.4,0.46,-0.1,0.63,0.34,0.42,0.37,0.62,-0.35,-0.18,0.49,-0.16,-0.35
0.1,0.1,0.1,0.1,0.1,0.1,0.1,0.1,0.1,0.1,0.1,0.1,0.1,0.1,0.1,0.1,0.1,0.1,0.1,0.1,0.1,0.1,0.1,0.1
0.84802,0.59043,0.78432,0.8305,0.94134,0.32877,0.5283,0.96094,0.22249,0.3397,0.40894,0.41915,0.36651,0.4445,0.21565,0.44833,0.34908,0.96221,0.17568,0.74017,0.69571,0.89346,0.67177,0.74903
0,0,0,0,0,0,0,0,0,0,0,0,0,0,0,0,0,0,0,0,0,0,0,0
0,0,0,0,0,0,0,0,0,0,0,0,0,0,0,0,0,0,0,0,0,0,0,0
0.52996,0.80709,0.62036,-0.55702,0.33745,-0.94441,0.84906,-0.27675,0.97493,0.94053,0.91256,0.90791,0.93041,-0.89578,0.97647,0.89387,0.93709,-0.27231,0.98445,0.67243,0.71833,-0.44913,0.74076,0.66254
