0.705,0.379,0.551,0.624,0.229,0.642,0.737,0.584,0.523,0.643,0.569,0.824,0.654,0.246,0.717,0.251,0.541,0.378,0.769,0.145,0.102,0.655,0.513,0.201,0.444,0.321,0.59,0.214,0.086,0.166,0.57,0.601,0.669,0.506,0.463,0.659,0.12,0.466,0.577,0.616,0.438,0.141,0.799,0.473,0.802,0.456,0.675,0.294,0.49,0.58
0.056,0.647,-0.494,-0.476,-0.76,0.358,-0.062,-0.522,-0.433,-0.28,-0.396,-0.333,0.527,-0.551,0.191,-0.557,0.521,-0.665,-0.168,-0.803,-0.613,-0.378,-0.477,0.636,-0.37,0.745,0.291,-0.685,-0.782,0.738,0.13,-0.012,-0.186,0.449,-0.429,-0.528,-0.556,0.479,0.173,0.623,-0.588,0.719,0.231,0.598,0.18,-0.658,-0.434,0.665,-0.49,-0.093
0.319,0.346,0.488,0.203,0.344,0.171,0.599,0.18,0.012,0.145,0.179,0.316,0.598,0.432,0.234,0.345,0.23,0.377,0.309,0.613,0.222,0.241,0.247,0.057,0.41,0.673,0.377,0.186,0.291,0.047,0.118,0.213,0.11,0.04,0.847,0.428,0.357,0.37,0.747,0.403,0.331,0.579,0.007,0.083,0.135,0.418,0.493,0.268,0.18,0.091
0.50208,0.065193,0.17799,-0.46636,-0.53542,0.18199,0.051189,-0.49203,-0.41047,0.011411,0.61523,0.59628,0.069653,0.71515,0.74793,0.83055,0.70303,0.73475,0.58568,0.75162,-0.50369,-0.53328,-0.72691,0.80896,-0.74975,0.087733,0.58797,0.36849,0.88532,0.70638,-0.52124,0.74511,-0.6289,0.12943,-0.66027,0.59677,-0.394,-0.55837,0.60107,0.3123,-0.2322,0.02169,0.45335,-0.57012,0.67431,0.73794,-0.65711,0.75602,-0.74948,-0.89384
0.4184,-0.12631,0.42107,0.4215,0.47222,0.54824,0.57982,0.33001,0.11054,-0.12838,-0.45429,-0.43796,0.43166,-0.25655,-0.090964,0.02999,0.43842,-0.48728,-0.22033,-0.57848,0.34077,0.31574,0.0098453,0.39462,-0.26462,-0.047157,0.43146,0.13934,-0.33954,0.58542,-0.59308,0.54818,-0.34447,0.1962,0.54667,-0.58499,0.086695,-0.10043,-0.19454,-0.43587,0.57719,-0.32346,0.33606,-0.040353,0.19601,-0.52645,0.20393,0.60877,0.54166,-0.3739
-0.38816,-0.41764,-0.44896,-0.17092,-0.41042,-0.046927,-0.004922,-0.45451,0.41128,0.49354,0.061047,-0.11702,0.41425,-0.46239,-0.46291,-0.44401,-0.22751,0.20527,-0.58879,-0.28324,0.52965,0.3474,0.63584,0.053438,0.46446,0.56478,-0.208,0.50615,-0.29,0.030239,0.05179,-0.3292,0.29427,0.020545,0.22111,-0.12531,0.50237,0.33743,-0.54059,-0.32353,0.0079613,0.47906,-0.54428,0.35283,-0.48249,-0.34006,0.19521,-0.14574,0.17585,0.24549
-0.64975,0.89742,-0.76776,-0.7587,-0.56736,-0.81493,-0.81312,-0.66514,0.80631,0.86012,0.64139,0.66253,-0.79826,-0.45709,0.46695,-0.33488,-0.51165,0.42493,0.51162,0.14212,0.59131,-0.70373,0.25926,-0.43243,0.39004,-0.81921,-0.65182,0.76721,0.12969,-0.39673,0.61146,-0.18958,0.63185,-0.97177,-0.46509,0.53474,0.76477,-0.75119,0.55555,0.77962,-0.78286,-0.81572,-0.62072,-0.74084,0.52353,0.25029,-0.69894,0.19128,-0.33759,0.031473
