0.24,0.39,0.1,0.38,0.36,0.11,0.35,0.22,0.87,0.25,0.85,0.64,0.18,0.41,0.86,0.41,0.34,0.36,0.41,0.66,0.34,0.4,0.33,0.44,0.22,0.36,0.49,0.08,0.52,0.48,0.71,0.43,0.68,0.2,0.43,0.44,0.53,0.52,0.69,0.73,0,0.57,0.5,0.49,0.56,0.27,0.44,0.6,0.67,0.56
-0.32,0.15,-0.36,-0.77,0.08,0.83,0.11,-0.29,0.06,0.28,-0.12,-0.48,0.26,0.76,0.01,-0.01,-0.28,-0.21,-0.16,-0.16,-0.37,-0.54,0.3,-0.16,0.41,0.3,0.02,-0.66,0.67,0.05,0,-0.59,-0.32,0.47,0,-0.57,0.06,-0.08,0.45,-0.08,0.56,0.5,-0.09,-0.14,-0.58,-0.63,-0.67,0.54,-0.4,0.56
0,0,0,0,0,0,0,0,0,0,0,0,0,0,0,0,0,0,0,0,0,0,0,0,0,0,0,0,0,0,0,0,0,0,0,0,0,0,0,0,0,0,0,0,0,0,0,0,0,0
0.92239,0.93237,0.73115,0.64138,0.99784,0.6012,0.98857,0.69217,0.21825,0.99999,0.30936,0.34382,0.98371,0.17411,0.33543,0.74461,0.39861,0.47836,0.52249,0.77807,0.17584,0.94949,0.87902,0.48272,0.93964,0.84948,0.59393,1,0.019997,0.63267,0.6705,0.91982,0.80609,0.91647,0.6012,0.93516,0.44539,0.34558,0.23179,0.70795,0.95287,0.31911,0.41386,0.31161,0.77088,0.95104,0.8791,0.20716,0.78432,0.12258
0,0,0,0,0,0,0,0,0,0,0,0,0,0,0,0,0,0,0,0,0,0,0,0,0,0,0,0,0,0,0,0,0,0,0,0,0,0,0,0,0,0,0,0,0,0,0,0,0,0
0,0,0,0,0,0,0,0,0,0,0,0,0,0,0,0,0,0,0,0,0,0,0,0,0,0,0,0,0,0,0,0,0,0,0,0,0,0,0,0,0,0,0,0,0,0,0,0,0,0
-0.38626,0.3615,-0.68222,0.76722,-0.065727,-0.7991,-0.15077,-0.72174,0.97589,0.0042035,0.95094,0.93903,0.17976,-0.98473,0.94207,-0.6675,-0.91712,-0.87816,-0.85264,0.62817,-0.98442,0.31381,-0.47679,-0.87578,-0.34217,-0.52762,-0.80452,-0.00079633,-0.9998,-0.77442,0.74191,0.39234,0.5918,-0.40011,-0.7991,0.35422,-0.89533,-0.93839,0.97277,0.70626,-0.30338,0.94772,-0.91034,-0.95021,0.63698,0.30906,0.47664,0.97831,0.62036,0.99246
