0.67,0.57,0.42,0.56,0.36,0.28,0.08,0.34,0.19,0.42,0.67,0.02,0.51,0.22,0.38,0.11,0.73,0.67,0.23,0.36,0.42,0.08,0.49,0.1,0.09,0.42,0.01,0.06,0.49,0.71,0.42,0.86,0.45,0.73,0.81,0.46,0.18,0.61,0.89,0.62,0.25,0.23,0.21,0.06,0.45,0.55,0.31,0.32,0.21,0.57
-0.33,0.56,-0.2,-0.59,0.08,0.72,-0.68,0.1,0.66,-0.45,0.2,0.68,-0.08,0.65,0.14,-0.59,-0.1,-0.42,0.2,-0.65,0.17,-0.51,0.55,-0.41,0.83,0.14,0.56,0.37,-0.52,-0.51,0.13,0.08,0.54,0.33,0,-0.18,0.64,0.21,0,-0.17,-0.34,0.21,0.35,-0.29,-0.25,0.53,-0.62,-0.37,-0.67,-0.19
0,0,0,0,0,0,0,0,0,0,0,0,0,0,0,0,0,0,0,0,0,0,0,0,0,0,0,0,0,0,0,0,0,0,0,0,0,0,0,0,0,0,0,0,0,0,0,0,0,0
0.80257,0.13121,0.99674,0.77492,0.99844,0.49688,1,0.98185,0.66314,0.20513,0.66806,0.76754,0.42141,0.53119,0.92896,0.95657,0.011592,0.86067,0.99994,0.74903,0.9923,0.8573,0.48381,0.55636,0.46178,0.86742,0.94898,0.9551,0.63003,0.76535,0.98279,0.53676,0.21823,0.20846,0.021591,0.52694,0.50121,0.84768,0.54517,0.78432,0.99542,0.8699,0.77492,0.82489,0.96488,0.55353,0.81434,0.17568,0.85812,0.17568
0,0,0,0,0,0,0,0,0,0,0,0,0,0,0,0,0,0,0,0,0,0,0,0,0,0,0,0,0,0,0,0,0,0,0,0,0,0,0,0,0,0,0,0,0,0,0,0,0,0
0,0,0,0,0,0,0,0,0,0,0,0,0,0,0,0,0,0,0,0,0,0,0,0,0,0,0,0,0,0,0,0,0,0,0,0,0,0,0,0,0,0,0,0,0,0,0,0,0,0
0.59656,0.99135,-0.080708,0.63206,-0.055767,-0.86782,-0.00079633,-0.18964,-0.7485,0.97874,0.74411,-0.641,-0.90687,-0.84726,0.37018,-0.2915,0.99993,0.50916,-0.010796,0.66254,0.12388,-0.51482,-0.87517,-0.83094,-0.88699,-0.49757,-0.31532,-0.29628,0.77657,0.64361,-0.18473,0.84373,-0.9759,-0.97803,0.99977,-0.8499,-0.86532,0.53051,0.83833,0.62036,-0.09565,-0.49323,0.63206,-0.5653,-0.26268,0.83283,0.58039,0.98445,0.51345,0.98445
