0.05,0.2,0.25,0.65,0.26,0.39,0.53,0.77,0.08,0.67,0.78,0.33,0.39,0.5,0.35,0.33,0.56,0.15,0.41,0.61,0.35,0.73,0.34,0.37,0.5,0.56,0.38,0.08,0.62,0.34,0.7,0.1,0.26,0.65,0.54,0.29,0.36,0.34,0.47,0.42,0.34,0.19,0.69,0.01,0.65,0.08,0.11,0.41,0.42,0.02
-0.46,0.73,0.69,0.34,0.7,0.2,0.55,0.08,-0.42,-0.34,0,0.36,-0.71,-0.6,-0.33,-0.25,0.56,0.76,-0.2,-0.42,0.17,0,-0.73,-0.16,0.19,-0.58,0.07,-0.56,-0.5,0.21,-0.19,0.43,0.25,-0.26,0.4,-0.75,0.13,0.11,-0.07,0.54,0.13,0.66,-0.07,0.5,0.2,-0.68,-0.35,-0.44,-0.45,0.67
0,0,0,0,0,0,0,0,0,0,0,0,0,0,0,0,0,0,0,0,0,0,0,0,0,0,0,0,0,0,0,0,0,0,0,0,0,0,0,0,0,0,0,0,0,0,0,0,0,0
0.85992,0.50864,0.53119,0.17956,0.49688,0.93694,0.21823,0.54132,0.82489,0.80736,0.53808,0.77492,0.74964,0.63003,0.99332,0.96418,0.14102,0.46959,0.99654,0.85805,0.9912,0.041156,0.81767,0.52694,0.84768,0.77492,0.99841,0.95657,0.77437,0.8656,0.78812,0.95129,0.99994,0.17919,0.54199,0.86072,0.8631,0.97995,0.41762,0.47961,0.98093,0.65748,0.011592,0.94798,0.67305,1,0.55177,0.16434,0.20314,0.76338
0,0,0,0,0,0,0,0,0,0,0,0,0,0,0,0,0,0,0,0,0,0,0,0,0,0,0,0,0,0,0,0,0,0,0,0,0,0,0,0,0,0,0,0,0,0,0,0,0,0
0,0,0,0,0,0,0,0,0,0,0,0,0,0,0,0,0,0,0,0,0,0,0,0,0,0,0,0,0,0,0,0,0,0,0,0,0,0,0,0,0,0,0,0,0,0,0,0,0,0
-0.51044,-0.86098,-0.84725,-0.98375,-0.86782,0.34949,-0.9759,0.84082,-0.5653,0.59006,0.84289,0.63206,0.66185,0.77657,-0.11542,-0.26524,0.99001,-0.88288,-0.08317,0.51357,0.1324,0.99915,0.57569,-0.8499,0.53051,0.63206,-0.05633,-0.2915,0.63273,-0.50074,0.61552,-0.3083,-0.010905,0.98381,0.84039,0.50907,-0.50504,-0.19925,-0.90862,-0.87748,-0.19436,-0.75347,0.99993,-0.31834,0.7396,-0.00079633,-0.834,0.9864,0.97915,-0.64594
