0.57,0.17,0.29,0.42,0.42,0.51,0.73,0.7,0.25,0.53,0.79,0.56,0.32,0.78,0.47,0.28,0.63,0.69,0.43,0.51,0.16,0.74,0.8,0.4,0.33,0.39,0.4,0.66,0.66,0.4,0.41,0.34,0.3,0.39,0.43,0.06,0.55,0.6,0.04,0.41,0.31,0.82,0.5,0.41,0.41,0.34,0.76,0.34,0.62,0.73
0.52,-0.39,0.7,0.23,0.66,0.58,0.32,-0.32,0.77,0.45,-0.1,-0.55,0.37,-0.16,-0.65,0.36,0.46,-0.31,0.57,-0.62,0.39,0.09,-0.09,0.72,0.74,-0.7,0.23,-0.43,0.4,-0.7,0.38,-0.71,-0.23,-0.26,0.69,0.4,0.42,-0.51,0.43,0.34,0.39,0.08,0.29,0.24,0.03,-0.75,-0.27,0.23,0.34,-0.35
0,0,0,0,0,0,0,0,0,0,0,0,0,0,0,0,0,0,0,0,0,0,0,0,0,0,0,0,0,0,0,0,0,0,0,0,0,0,0,0,0,0,0,0,0,0,0,0,0,0
0.22466,0.8861,0.46591,0.89816,0.1201,0.28427,0.04077,0.78919,0.35633,0.37092,0.28946,0.85554,0.7937,0.32199,0.63177,0.83415,0.3631,0.29896,0.44395,0.59922,0.96681,0.0065926,0.27878,0.20825,0.3429,0.66932,0.92682,0.41905,0.42738,0.79657,0.72882,0.94357,0.87487,0.98712,0.27636,0.99953,0.52404,0.83939,0.98918,0.79657,0.77827,0.40165,0.72538,0.73697,0.65562,0.86821,0.35316,0.88893,0.27636,0.72193
0,0,0,0,0,0,0,0,0,0,0,0,0,0,0,0,0,0,0,0,0,0,0,0,0,0,0,0,0,0,0,0,0,0,0,0,0,0,0,0,0,0,0,0,0,0,0,0,0,0
0,0,0,0,0,0,0,0,0,0,0,0,0,0,0,0,0,0,0,0,0,0,0,0,0,0,0,0,0,0,0,0,0,0,0,0,0,0,0,0,0,0,0,0,0,0,0,0,0,0
0.97444,-0.4635,-0.88483,0.43966,0.99276,-0.95874,0.99917,0.61415,-0.93436,-0.92866,0.95719,0.51774,0.60831,0.94674,0.77515,0.55154,0.93175,0.95427,-0.89605,0.80058,-0.25549,0.99998,0.96035,-0.97808,-0.93937,0.74298,0.3755,0.90796,0.90407,0.60455,0.68471,0.33118,-0.48436,-0.15998,-0.96106,-0.030796,0.85169,0.54353,-0.14673,0.60455,0.62794,0.91579,0.68834,-0.67593,-0.75509,0.49619,0.93556,-0.45805,-0.96106,0.69196
