0.358,0.348,0.348,0.348,0.348,0.348,0.348,0.348,0.348,0.348,0.348,0.348,0.348,0.348,0.348,0.348,0.348,0.348,0.348,0.348,0.348,0.348,0.348,0.348,0.348,0.348,0.348,0.348,0.348,0.348,0.348,0.348,0.348,0.348,0.348,0.348,0.348,0.348,0.348,0.348,0.348,0.348,0.348,0.348,0.348,0.348,0.348,0.348,0.348,0.348,0.348,0.348
0.149,0.159,0.159,0.159,0.159,0.159,0.159,0.159,0.159,0.159,0.159,0.159,0.159,0.159,0.159,0.159,0.159,0.159,0.159,0.159,0.159,0.159,0.159,0.159,0.159,0.159,0.159,0.159,0.159,0.159,0.159,0.159,0.159,0.159,0.159,0.159,0.159,0.159,0.159,0.159,0.159,0.159,0.159,0.159,0.159,0.159,0.159,0.159,0.159,0.159,0.159,0.159
0.274,0.244,0.244,0.244,0.244,0.244,0.244,0.244,0.244,0.244,0.244,0.244,0.244,0.244,0.244,0.244,0.244,0.244,0.244,0.244,0.244,0.244,0.244,0.244,0.244,0.244,0.244,0.244,0.244,0.244,0.244,0.244,0.244,0.244,0.244,0.244,0.244,0.244,0.244,0.244,0.244,0.244,0.244,0.244,0.244,0.244,0.244,0.244,0.244,0.244,0.244,0.244
-0.44454,-0.26916,-0.26916,-0.26916,-0.26916,-0.26916,-0.26916,-0.26916,-0.26916,-0.26916,-0.26916,-0.26916,-0.26916,-0.26916,-0.26916,-0.26916,-0.26916,-0.26916,-0.26916,-0.26916,-0.26916,-0.26916,-0.26916,-0.26916,-0.26916,-0.26916,-0.26916,-0.26916,-0.26916,-0.26916,-0.26916,-0.26916,-0.26916,-0.26916,-0.26916,-0.26916,-0.26916,-0.26916,-0.26916,-0.26916,-0.26916,-0.26916,-0.26916,-0.26916,-0.26916,-0.26916,-0.26916,-0.26916,-0.26916,-0.26916,-0.26916,-0.26916
-0.36143,-0.48178,-0.48178,-0.48178,-0.48178,-0.48178,-0.48178,-0.48178,-0.48178,-0.48178,-0.48178,-0.48178,-0.48178,-0.48178,-0.48178,-0.48178,-0.48178,-0.48178,-0.48178,-0.48178,-0.48178,-0.48178,-0.48178,-0.48178,-0.48178,-0.48178,-0.48178,-0.48178,-0.48178,-0.48178,-0.48178,-0.48178,-0.48178,-0.48178,-0.48178,-0.48178,-0.48178,-0.48178,-0.48178,-0.48178,-0.48178,-0.48178,-0.48178,-0.48178,-0.48178,-0.48178,-0.48178,-0.48178,-0.48178,-0.48178,-0.48178,-0.48178
0.013529,0.013765,0.013765,0.013765,0.013765,0.013765,0.013765,0.013765,0.013765,0.013765,0.013765,0.013765,0.013765,0.013765,0.013765,0.013765,0.013765,0.013765,0.013765,0.013765,0.013765,0.013765,0.013765,0.013765,0.013765,0.013765,0.013765,0.013765,0.013765,0.013765,0.013765,0.013765,0.013765,0.013765,0.013765,0.013765,0.013765,0.013765,0.013765,0.013765,0.013765,0.013765,0.013765,0.013765,0.013765,0.013765,0.013765,0.013765,0.013765,0.013765,0.013765,0.013765
-0.8195,-0.83382,-0.83382,-0.83382,-0.83382,-0.83382,-0.83382,-0.83382,-0.83382,-0.83382,-0.83382,-0.83382,-0.83382,-0.83382,-0.83382,-0.83382,-0.83382,-0.83382,-0.83382,-0.83382,-0.83382,-0.83382,-0.83382,-0.83382,-0.83382,-0.83382,-0.83382,-0.83382,-0.83382,-0.83382,-0.83382,-0.83382,-0.83382,-0.83382,-0.83382,-0.83382,-0.83382,-0.83382,-0.83382,-0.83382,-0.83382,-0.83382,-0.83382,-0.83382,-0.83382,-0.83382,-0.83382,-0.83382,-0.83382,-0.83382,-0.83382,-0.83382
7
40
2
47
