0.375,0.483,0.459,0.243,0.583,0.367,0.264,0.427,0.527,0.366,0.419,0.357,0.509,0.482,0.304,0.354,0.531,0.558,0.358,0.59,0.426,0.401,0.593,0.373,0.241,0.384,0.464,0.279,0.587,0.534,0.345,0.524,0.282,0.444,0.498,0.24,0.572,0.563,0.471,0.276,0.482,0.332,0.322,0.479,0.425,0.352,0.282,0.584,0.211,0.409,0.429,0.348,0.584,0.417,0.502,0.409,0.49,0.433,0.218,0.448,0.232,0.293,0.309,0.201,0.436,0.424,0.24,0.292,0.542,0.544,0.49,0.578,0.375,0.429,0.553,0.214,0.437,0.26,0.519,0.554,0.505,0.579,0.42,0.461,0.445,0.327,0.352,0.481,0.569,0.553,0.555,0.3,0.228,0.596,0.363,0.432,0.213,0.597,0.398,0.281
-0.049,0.116,0.216,-0.027,0.085,0.27,0.3,0.023,0.143,0.248,0.347,-0.02,-0.001,0.011,0.195,-2.7756e-17,0.201,0.198,0.072,0.062,0.2,0.073,0.184,0.17,0.307,0.103,0.058,0.005,-0.032,0.161,0.022,0.094,-0.016,0.076,0.277,0.307,0.081,0.118,0.125,0.033,0.015,0.156,0.192,0.003,0.076,0.279,0.295,-0.013,0.093,0.271,-0.014,0.245,0.267,0.191,0.068,-0.043,0.205,0.078,0.317,0.123,-0.026,0.084,0.215,0.302,0.199,0.242,0.186,0.018,0.073,-0.005,0.259,0.001,0.303,0.073,0.038,0.278,0.031,0.068,-0.006,0.021,0.097,0.037,0.245,0.211,-0.047,-0.011,0.171,0.106,0.085,0.315,-0.017,0.252,0.085,-0.013,0.239,0.179,0.095,-0.012,-0.025,0.234
0.449,0.443,0.363,0.406,0.524,0.421,0.222,0.302,0.278,0.323,0.544,0.172,0.462,0.417,0.224,0.34,0.404,0.376,0.487,0.534,0.187,0.449,0.277,0.544,0.341,0.511,0.485,0.53,0.333,0.392,0.484,0.233,0.43,0.522,0.188,0.444,0.192,0.301,0.256,0.51,0.334,0.534,0.166,0.519,0.509,0.289,0.448,0.286,0.464,0.317,0.445,0.481,0.308,0.376,0.357,0.306,0.207,0.171,0.209,0.396,0.537,0.402,0.425,0.17,0.536,0.549,0.454,0.364,0.508,0.275,0.344,0.451,0.272,0.345,0.318,0.407,0.337,0.499,0.486,0.531,0.267,0.432,0.495,0.256,0.242,0.497,0.535,0.29,0.279,0.173,0.45,0.399,0.489,0.249,0.358,0.543,0.329,0.46,0.31,0.504
0.90404,0.91227,0.9218,0.93761,0.97921,0.91375,0.89127,0.90616,0.95091,0.93924,0.86979,0.97377,0.96409,0.94708,0.94621,0.82669,0.89642,0.96479,0.91711,0.83239,0.86479,0.84948,0.98845,0.84183,0.92683,0.87594,0.97289,0.88909,0.97332,0.85243,0.91075,0.94297,0.88058,0.98762,0.89257,0.9044,0.92094,0.93109,0.91698,0.93829,0.89514,0.88794,0.97894,0.77242,0.90612,0.84856,0.89003,0.84275,0.93345,0.90993,0.80539,0.88115,0.85242,0.88817,0.86325,0.91846,0.91289,0.94269,0.88595,0.87478,0.92475,0.9746,0.84741,0.8521,0.86525,0.98806,0.91959,0.97975,0.89414,0.80814,0.75969,0.86654,0.87082,0.93264,0.8234,0.97329,0.90243,0.88186,0.92061,0.92971,0.94522,0.92075,0.9147,0.90353,0.94986,0.89794,0.78169,0.88424,0.92761,0.78669,0.86734,0.88993,0.9778,0.82802,0.9382,0.92431,0.88941,0.9439,0.96362,0.8898
-0.34437,0.31727,-0.052395,0.077034,0.18032,0.27349,-0.27347,-0.10606,0.072346,0.075338,0.42002,-0.077419,0.098471,0.23582,0.07815,-0.37124,0.057262,0.045172,-0.24846,-0.24805,-0.1572,-0.2941,0.020697,-0.26619,0.077037,0.42098,0.058516,-0.37675,-0.16006,-0.31574,0.32006,-0.11264,0.21235,-0.068907,-0.41677,-0.082378,0.37385,-0.066074,0.11865,-0.33856,-0.31932,-0.19879,-0.19622,-0.45216,0.25799,-0.32858,-0.20143,0.23225,0.16476,-0.026185,-0.37466,0.2851,0.17874,-0.39811,0.2297,0.28977,0.3189,-0.32474,-0.13135,0.32633,0.22569,-0.18667,-0.20661,-0.37149,0.29907,0.053508,-0.18078,0.11501,0.37728,-0.31958,-0.40897,-0.32464,0.28783,0.1818,0.34519,5.7386e-05,0.10078,0.3321,-0.20698,0.18037,0.0086004,-0.36413,0.13578,0.25435,-0.23916,-0.2242,-0.39607,0.28454,-0.094315,-0.36273,-0.28441,-0.19353,-0.037449,-0.22012,0.14276,0.19465,-0.20529,-0.13702,0.10182,0.22876
0.25304,-0.16982,-0.26904,0.28081,-0.009315,0.062477,-0.14656,-0.15489,0.0027213,0.12104,-0.054243,-0.03932,0.16914,-0.082526,0.10492,-0.2619,-0.29511,-0.2349,0.23785,0.34671,0.44437,0.20765,0.13287,0.39519,-0.21763,0.071092,-0.11911,0.15882,0.11767,-0.25082,0.25444,0.27324,0.40308,0.09638,-0.14455,0.41717,0.010077,0.3554,-0.06271,0.059589,-0.30114,-0.37844,0.034556,0.23842,0.32432,-0.21076,-0.25269,0.25435,0.31222,0.40295,-0.20103,0.32419,-0.45229,0.20025,-0.44533,0.14935,0.17432,-0.065666,0.27961,-0.0014399,-0.29616,-0.071105,0.30007,0.0026754,0.40168,-0.021609,0.11722,-0.073501,0.037192,-0.24257,-0.21047,0.37826,0.20223,-0.30724,-0.23783,-0.22891,-0.36017,0.24968,-0.29022,-0.20536,-0.18497,0.1395,0.36142,-0.17289,-0.11609,0.21038,0.26274,-0.36813,-0.36142,0.29548,0.31451,-0.27803,0.181,0.32088,0.30777,0.3125,0.29265,-0.09759,0.21418,0.3772
0.0096642,0.19562,0.27416,-0.18999,-0.092395,0.29387,-0.33072,0.379,-0.30088,0.31225,-0.2532,-0.21034,0.17954,0.20155,0.29592,-0.33192,-0.32566,0.10936,-0.20152,0.35412,-0.17309,0.3857,-0.069887,-0.25356,0.29612,-0.22461,0.18943,0.20579,0.11485,0.3328,0.057998,-0.15315,-0.13044,-0.10278,-0.093426,0.035347,0.10952,0.049003,-0.37567,0.037813,-0.077977,0.16978,-0.044589,0.37691,-0.084905,-0.35716,-0.32159,-0.41369,-0.063581,-0.094715,-0.41299,-0.19284,-0.19201,0.11206,-0.061058,0.22394,0.18587,-0.039643,-0.34591,0.35814,0.078709,-0.10129,0.38623,-0.36867,-0.023693,-0.14284,0.32854,-0.14651,-0.23832,-0.43121,-0.4597,-0.025112,-0.34342,-0.052355,0.3825,-0.017537,0.21388,-0.2229,-0.15939,0.24685,0.26882,-0.013341,-0.1194,-0.29842,0.1646,-0.31492,0.4038,0.04045,-0.0033322,0.40279,-0.2606,0.30541,0.09871,0.40369,-0.068364,0.10053,-0.28489,-0.28416,0.12323,-0.11681
