0.51614,0.37831,0.15774,1
0.52091,0.365,0.15634,1
0.52569,0.35169,0.1541,1
0.53046,0.33839,0.15076,1
0.53523,0.32508,0.14627,1
0.54001,0.31176,0.14019,1
0.54479,0.29845,0.13296,1
0.54956,0.28515,0.1247,1
0.55434,0.27184,0.11582,1
0.52529,0.36828,0.15662,1
0.53445,0.35826,0.15468,1
0.54361,0.34823,0.15162,1
0.55277,0.33821,0.14736,1
0.56193,0.32818,0.14136,1
0.57108,0.31816,0.13374,1
0.58024,0.30813,0.12463,1
0.5894,0.29811,0.11306,1
0.52847,0.37487,0.15708,1
0.54081,0.37143,0.15524,1
0.55316,0.36799,0.15213,1
0.5655,0.36455,0.14745,1
0.57784,0.36112,0.14096,1
0.59018,0.35768,0.13248,1
0.60252,0.35424,0.12103,1
0.61487,0.3508,0.10497,1
0.52811,0.38277,0.15763,1
0.54007,0.38723,0.156,1
0.55204,0.39169,0.15293,1
0.56401,0.39616,0.14804,1
0.57598,0.40062,0.14141,1
0.58795,0.40509,0.13216,1
0.59992,0.40955,0.11969,1
0.61189,0.41401,0.10178,1
0.52427,0.38805,0.1579,1
0.53241,0.3978,0.15704,1
0.54055,0.40754,0.15476,1
0.54869,0.41728,0.15128,1
0.55682,0.42703,0.14641,1
0.56497,0.43677,0.13977,1
0.5731,0.44652,0.13085,1
0.58125,0.45626,0.11932,1
0.58938,0.46601,0.10335,1
0.59752,0.47575,0.079257,1
0.51499,0.34527,0.15239,1
0.51368,0.33255,0.14855,1
0.51237,0.31981,0.14336,1
0.51106,0.30709,0.13689,1
0.50976,0.29435,0.129,1
0.50846,0.28162,0.11928,1
0.50715,0.26889,0.10758,1
0.50585,0.25616,0.09299,1
0.51717,0.35909,0.15545,1
0.50906,0.34991,0.15282,1
0.50093,0.34072,0.14894,1
0.49282,0.33153,0.14378,1
0.48469,0.32235,0.13664,1
0.47658,0.31316,0.12742,1
0.46846,0.30397,0.11469,1
0.46034,0.29479,0.096716,1
0.50497,0.35599,0.15372,1
0.49276,0.35289,0.15031,1
0.48057,0.34979,0.14525,1
0.46836,0.34668,0.13824,1
0.45616,0.34358,0.12886,1
0.44396,0.34048,0.11576,1
0.50446,0.3631,0.15479,1
0.49173,0.36709,0.15282,1
0.47902,0.37108,0.1495,1
0.46629,0.37507,0.14438,1
0.45358,0.37907,0.13732,1
0.44086,0.38306,0.128,1
0.42814,0.38706,0.11528,1
0.5275,0.38184,0.15761,1
0.52972,0.39539,0.15742,1
0.53193,0.40894,0.15623,1
0.53415,0.42249,0.15417,1
0.53636,0.43604,0.15095,1
0.53858,0.44959,0.14707,1
0.54079,0.46314,0.14167,1
0.54301,0.4767,0.13504,1
0.54522,0.49025,0.12718,1
0.54744,0.5038,0.11796,1
0.54965,0.51735,0.1072,1
0.55186,0.53091,0.093468,1
0.52537,0.38249,0.15772,1
0.52545,0.39671,0.15776,1
0.52552,0.41091,0.15684,1
0.5256,0.42513,0.15519,1
0.52569,0.43934,0.1524,1
0.52576,0.45354,0.14879,1
0.52584,0.46776,0.14422,1
0.52592,0.48197,0.13871,1
0.526,0.49617,0.1327,1
0.52608,0.51039,0.12627,1
0.52616,0.5246,0.11944,1
0.52623,0.53881,0.11222,1
0.52631,0.55302,0.1048,1
0.52639,0.56723,0.096293,1
0.52647,0.58144,0.08676,1
0.52375,0.38282,0.15778,1
0.52222,0.39735,0.15787,1
0.52069,0.41189,0.15722,1
0.51917,0.42643,0.15543,1
0.51764,0.44097,0.15303,1
0.51611,0.4555,0.14958,1
0.51458,0.47003,0.14533,1
0.51305,0.48457,0.14037,1
0.51152,0.4991,0.13527,1
0.50998,0.51364,0.13029,1
0.50845,0.52817,0.12503,1
0.50692,0.54271,0.1204,1
0.50539,0.55724,0.11569,1
0.50386,0.57178,0.1114,1
0.50233,0.58631,0.10688,1
0.50079,0.60085,0.1027,1
0.51772,0.37945,0.15789,1
0.51454,0.39389,0.15814,1
0.51135,0.40834,0.15761,1
0.50816,0.42279,0.15612,1
0.50498,0.43723,0.15385,1
0.50179,0.45168,0.15072,1
0.4986,0.46613,0.14693,1
0.49542,0.48057,0.14256,1
0.49224,0.49502,0.1383,1
0.48905,0.50947,0.13413,1
0.48586,0.52392,0.13012,1
0.48268,0.53836,0.12665,1
0.47949,0.55281,0.12347,1
0.47631,0.56725,0.12079,1
0.47312,0.58169,0.11839,1
0.46993,0.59614,0.11652,1
0.52061,0.38234,0.15788,1
0.51593,0.39639,0.15804,1
0.51126,0.41044,0.15745,1
0.50658,0.42449,0.15585,1
0.5019,0.43855,0.15356,1
0.49722,0.45259,0.15027,1
0.49254,0.46665,0.14644,1
0.48786,0.4807,0.14206,1
0.48319,0.49476,0.1377,1
0.47851,0.5088,0.13344,1
0.47383,0.52286,0.12964,1
0.46916,0.53691,0.12628,1
0.46447,0.55096,0.12346,1
0.45979,0.56502,0.12098,1
0.45512,0.57907,0.11893,1
0.45044,0.59313,0.11725,1
0.44576,0.60717,0.11567,1
0.50177,0.39803,0.15714,1
0.49557,0.4112,0.15592,1
0.48937,0.42438,0.1537,1
0.48318,0.43755,0.15076,1
0.47698,0.45071,0.14698,1
0.47079,0.46388,0.14243,1
0.46459,0.47705,0.13742,1
0.45839,0.49023,0.13242,1
0.4522,0.5034,0.12737,1
0.446,0.51657,0.12275,1
0.43981,0.52974,0.11833,1
0.43361,0.54291,0.11421,1
0.42742,0.55608,0.11032,1
0.42122,0.56926,0.10674,1
0.48438,0.40356,0.15365,1
0.47771,0.41611,0.15134,1
0.47105,0.42865,0.14827,1
0.46438,0.4412,0.14395,1
0.45773,0.45374,0.13899,1
0.45106,0.46629,0.13341,1
0.4444,0.47883,0.12736,1
0.43774,0.49137,0.12094,1
0.43107,0.50391,0.11471,1
0.42441,0.51646,0.10836,1
0.41774,0.529,0.1018,1
0.41108,0.54154,0.095327,1
0.40441,0.55409,0.091093,1
0.49814,0.38626,0.15632,1
0.48902,0.39685,0.15475,1
0.47991,0.40744,0.15235,1
0.4708,0.41803,0.14868,1
0.46168,0.42863,0.14421,1
0.45257,0.43922,0.13823,1
0.44346,0.4498,0.1312,1
0.43434,0.46039,0.12254,1
0.42523,0.47099,0.1126,1
0.41612,0.48158,0.10044,1
0.407,0.49217,0.088227,1
0.39789,0.50276,0.085266,1
0.38878,0.51335,0.083232,1
0.4721,0.39709,0.14942,1
0.46266,0.40527,0.14533,1
0.45322,0.41344,0.14016,1
0.44379,0.42162,0.13375,1
0.43435,0.42979,0.12554,1
0.42491,0.43796,0.11544,1
0.41548,0.44614,0.10236,1
0.40605,0.45432,0.086089,1
0.49773,0.27783,0.11122,1
0.487,0.27405,0.099675,1
0.47627,0.27026,0.081766,1
0.46555,0.26648,0.073029,1
0.45481,0.26269,0.067993,1
0.44409,0.2589,0.061299,1
0.43336,0.25511,0.05276,1
0.42263,0.25133,0.041477,1
0.47817,0.31019,0.12632,1
0.46798,0.30754,0.11716,1
0.45778,0.3049,0.10494,1
0.44759,0.30225,0.086464,1
0.4374,0.29961,0.071479,1
0.4272,0.29697,0.064588,1
0.41701,0.29432,0.056187,1
0.40682,0.29168,0.045761,1
0.4601,0.36064,0.13767,1
0.45161,0.3558,0.12985,1
0.44312,0.35095,0.1201,1
0.43463,0.34609,0.10738,1
0.42614,0.34124,0.088837,1
0.41765,0.33639,0.069953,1
0.40915,0.33155,0.062212,1
0.44904,0.39657,0.13663,1
0.44,0.3927,0.12897,1
0.43097,0.38884,0.11915,1
0.42193,0.38498,0.10626,1
0.41289,0.38112,0.087382,1
0.40387,0.37725,0.069937,1
0.39483,0.37338,0.061979,1
0.43807,0.45773,0.12596,1
0.42852,0.45186,0.11818,1
0.41896,0.44598,0.10755,1
0.40941,0.44011,0.091896,1
0.39987,0.43423,0.078448,1
0.39031,0.42836,0.070771,1
0.38077,0.42248,0.062915,1
0.37122,0.41661,0.052257,1
0.42636,0.48806,0.11183,1
0.41499,0.48475,0.098566,1
0.40361,0.48142,0.085042,1
0.39223,0.47811,0.080393,1
0.38087,0.4748,0.073873,1
0.36949,0.47149,0.065513,1
0.42302,0.53559,0.10687,1
0.41243,0.52826,0.09555,1
0.40184,0.52094,0.087888,1
0.39125,0.51361,0.084179,1
0.38066,0.50629,0.078887,1
0.37006,0.49897,0.071594,1
0.35947,0.49164,0.062571,1
0.40907,0.56426,0.095417,1
0.39693,0.55925,0.088949,1
0.38479,0.55426,0.085922,1
0.37265,0.54926,0.081119,1
0.36051,0.54426,0.074304,1
0.34836,0.53927,0.065112,1
0.41623,0.28778,0.052666,1
0.40524,0.27859,0.040921,1
0.39426,0.26941,0.038805,1
0.38328,0.26022,0.037675,1
0.37231,0.25103,0.036492,1
0.36132,0.24185,0.035126,1
0.42665,0.31489,0.06974,1
0.41383,0.30907,0.058826,1
0.40102,0.30324,0.045893,1
0.3882,0.29743,0.042969,1
0.37539,0.29161,0.042771,1
0.36258,0.28579,0.042547,1
0.34976,0.27997,0.042316,1
0.33694,0.27415,0.042101,1
0.32413,0.26833,0.041908,1
0.31132,0.26251,0.041613,1
0.41349,0.3419,0.06821,1
0.40133,0.33589,0.05673,1
0.38918,0.32987,0.046334,1
0.37702,0.32386,0.045232,1
0.36486,0.31784,0.045095,1
0.3527,0.31183,0.044972,1
0.34055,0.30582,0.044862,1
0.40973,0.37935,0.077558,1
0.39754,0.37372,0.064258,1
0.38534,0.36809,0.051462,1
0.37314,0.36246,0.046386,1
0.36094,0.35683,0.046446,1
0.34874,0.3512,0.046428,1
0.33655,0.34557,0.046403,1
0.32435,0.33994,0.046353,1
0.40758,0.42149,0.0868,1
0.39482,0.41768,0.071592,1
0.38207,0.41385,0.06169,1
0.36932,0.41003,0.049316,1
0.35657,0.40621,0.046533,1
0.34382,0.40238,0.04662,1
0.33107,0.39856,0.04662,1
0.31831,0.39474,0.04662,1
0.30556,0.39093,0.04662,1
0.40203,0.46276,0.082803,1
0.38866,0.4604,0.07611,1
0.37528,0.45805,0.066681,1
0.36191,0.4557,0.054636,1
0.34854,0.45335,0.04646,1
0.33516,0.45099,0.04662,1
0.32179,0.44863,0.04662,1
0.30841,0.44628,0.04662,1
0.39713,0.51155,0.085735,1
0.38338,0.50803,0.080426,1
0.36961,0.50452,0.072417,1
0.35586,0.50101,0.061838,1
0.3421,0.49749,0.049051,1
0.32835,0.49398,0.046564,1
0.31458,0.49047,0.04662,1
0.30083,0.48696,0.04662,1
0.28707,0.48345,0.04662,1
0.37262,0.54757,0.080882,1
0.3587,0.54487,0.073261,1
0.3448,0.54216,0.063141,1
0.3309,0.53946,0.049613,1
0.31698,0.53676,0.046533,1
0.30308,0.53405,0.04662,1
0.28917,0.53135,0.04662,1
0.27526,0.52865,0.04662,1
0.39789,0.58985,0.090834,1
0.38395,0.58794,0.088092,1
0.37,0.58603,0.084335,1
0.35605,0.58413,0.078295,1
0.34211,0.58222,0.069769,1
0.32816,0.5803,0.058345,1
0.31422,0.5784,0.047793,1
0.30027,0.57649,0.04662,1
0.28632,0.57458,0.04662,1
0.27238,0.57268,0.04662,1
0.41772,0.5922,0.10575,1
0.40379,0.59385,0.094598,1
0.38986,0.5955,0.089626,1
0.37592,0.59716,0.086995,1
0.36198,0.59881,0.082889,1
0.34804,0.60045,0.076867,1
0.33411,0.6021,0.068454,1
0.32017,0.60376,0.057516,1
0.30623,0.60541,0.04787,1
0.2923,0.60706,0.046598,1
0.27836,0.60872,0.04662,1
0.26442,0.61037,0.04662,1
0.59342,0.30646,0.11394,1
0.60394,0.30787,0.10351,1
0.61445,0.30927,0.088121,1
0.62497,0.31067,0.062575,1
0.63548,0.31208,0.046972,1
0.646,0.31348,0.038589,1
0.65651,0.31489,0.033735,1
0.66703,0.31629,0.030929,1
0.61016,0.34142,0.10951,1
0.6209,0.3438,0.092727,1
0.63164,0.34618,0.068362,1
0.64238,0.34854,0.054476,1
0.65313,0.35092,0.046708,1
0.66388,0.3533,0.042,1
0.67462,0.35568,0.039544,1
0.68536,0.35806,0.038834,1
0.6184,0.38455,0.099786,1
0.62767,0.39008,0.078627,1
0.63694,0.3956,0.064198,1
0.64622,0.40112,0.055653,1
0.6555,0.40664,0.050306,1
0.66478,0.41216,0.047141,1
0.60797,0.43057,0.099675,1
0.61835,0.43545,0.075852,1
0.62872,0.44032,0.062224,1
0.6391,0.4452,0.05432,1
0.64948,0.45006,0.049381,1
0.65986,0.45494,0.047152,1
0.67023,0.45981,0.046596,1
0.58681,0.48828,0.084583,1
0.59868,0.49194,0.066064,1
0.61054,0.49559,0.056037,1
0.6224,0.49923,0.050232,1
0.63427,0.50288,0.047403,1
0.64613,0.50654,0.046615,1
0.65799,0.51019,0.04662,1
0.64592,0.33867,0.048499,1
0.66005,0.34148,0.040627,1
0.67417,0.3443,0.037581,1
0.6883,0.34711,0.036511,1
0.70243,0.34993,0.036201,1
0.71656,0.35274,0.035848,1
0.65667,0.39452,0.049936,1
0.67139,0.39539,0.044956,1
0.6861,0.39624,0.043746,1
0.70081,0.39711,0.043423,1
0.71553,0.39796,0.043095,1
0.62851,0.44197,0.061887,1
0.64267,0.44393,0.052771,1
0.65684,0.4459,0.047761,1
0.671,0.44786,0.046519,1
0.68516,0.44983,0.046393,1
0.69932,0.45179,0.046342,1
0.71348,0.45377,0.046299,1
0.60981,0.48324,0.061321,1
0.62211,0.49071,0.052118,1
0.63441,0.4982,0.047773,1
0.64671,0.50568,0.046607,1
0.659,0.51317,0.04662,1
0.6713,0.52065,0.04662,1
0.6836,0.52814,0.04662,1
0.57795,0.5318,0.060992,1
0.5905,0.53893,0.052076,1
0.60305,0.54606,0.04757,1
0.6156,0.55319,0.046578,1
0.62815,0.56032,0.04662,1
0.64071,0.56745,0.04662,1
0.65325,0.57457,0.04662,1
0.56599,0.52575,0.076655,1
0.57484,0.53651,0.060962,1
0.5837,0.54727,0.052335,1
0.59255,0.55803,0.047929,1
0.6014,0.56879,0.046667,1
0.61025,0.57955,0.04662,1
0.6191,0.59031,0.04662,1
0.62795,0.60107,0.04662,1
0.6368,0.61183,0.04662,1
0.55887,0.54326,0.071068,1
0.56588,0.55562,0.058739,1
0.57288,0.56799,0.051632,1
0.57989,0.58035,0.047851,1
0.58689,0.59271,0.046664,1
0.5939,0.60507,0.04662,1
0.60092,0.61743,0.04662,1
0.60792,0.6298,0.04662,1
0.61493,0.64216,0.04662,1
0.52257,0.59588,0.081506,1
0.53332,0.60381,0.063493,1
0.54408,0.61176,0.05407,1
0.55483,0.61969,0.048928,1
0.5656,0.62762,0.046855,1
0.57635,0.63555,0.046609,1
0.58711,0.64349,0.04662,1
0.51324,0.63448,0.070645,1
0.52575,0.64079,0.057291,1
0.53828,0.64711,0.050325,1
0.5508,0.65343,0.046996,1
0.56333,0.65974,0.046554,1
0.57585,0.66606,0.04662,1
0.58837,0.67238,0.04662,1
0.6009,0.67869,0.04662,1
