0.52626,0.36767,0.15774,1
0.53793,0.37565,0.15634,1
0.5496,0.38363,0.1541,1
0.56127,0.39162,0.15076,1
0.57293,0.3996,0.14627,1
0.58461,0.40759,0.14019,1
0.59628,0.41557,0.13296,1
0.60795,0.42355,0.1247,1
0.61962,0.43153,0.11582,1
0.53365,0.37906,0.15662,1
0.54103,0.39045,0.15468,1
0.54842,0.40185,0.15162,1
0.5558,0.41325,0.14736,1
0.56318,0.42464,0.14136,1
0.57057,0.43603,0.13374,1
0.57796,0.44743,0.12463,1
0.58534,0.45882,0.11306,1
0.52647,0.38048,0.15708,1
0.52668,0.39328,0.15524,1
0.52689,0.4061,0.15213,1
0.5271,0.4189,0.14745,1
0.5273,0.43172,0.14096,1
0.52751,0.44453,0.13248,1
0.52772,0.45733,0.12103,1
0.52793,0.47015,0.10497,1
0.51892,0.37812,0.15763,1
0.51158,0.38857,0.156,1
0.50423,0.39902,0.15293,1
0.49689,0.40948,0.14804,1
0.48955,0.41993,0.14141,1
0.48221,0.43038,0.13216,1
0.47486,0.44084,0.11969,1
0.46752,0.45129,0.10178,1
0.51477,0.37308,0.1579,1
0.50329,0.37849,0.15704,1
0.4918,0.3839,0.15476,1
0.48032,0.38932,0.15128,1
0.46883,0.39473,0.14641,1
0.45735,0.40015,0.13977,1
0.44587,0.40555,0.13085,1
0.43438,0.41097,0.11932,1
0.4229,0.41638,0.10335,1
0.41141,0.4218,0.079257,1
0.55851,0.3749,0.15239,1
0.57115,0.37686,0.14855,1
0.58381,0.37881,0.14336,1
0.59645,0.38076,0.13689,1
0.6091,0.38272,0.129,1
0.62174,0.38467,0.11928,1
0.6344,0.38663,0.10758,1
0.64704,0.38858,0.09299,1
0.54459,0.37353,0.15545,1
0.55552,0.36799,0.15282,1
0.56647,0.36246,0.14894,1
0.57741,0.35693,0.14378,1
0.58834,0.35138,0.13664,1
0.59928,0.34586,0.12742,1
0.61023,0.34032,0.11469,1
0.62117,0.33479,0.096716,1
0.55067,0.3625,0.15372,1
0.55676,0.35148,0.15031,1
0.56284,0.34046,0.14525,1
0.56893,0.32944,0.13824,1
0.57501,0.31841,0.12886,1
0.5811,0.30739,0.11576,1
0.54393,0.36021,0.15479,1
0.54328,0.34689,0.15282,1
0.54263,0.33358,0.1495,1
0.54198,0.32026,0.14438,1
0.54133,0.30695,0.13732,1
0.54068,0.29364,0.128,1
0.54002,0.28031,0.11528,1
0.51997,0.37777,0.15761,1
0.5063,0.37649,0.15742,1
0.49263,0.37521,0.15623,1
0.47896,0.37393,0.15417,1
0.46529,0.37265,0.15095,1
0.45162,0.37137,0.14707,1
0.43795,0.37009,0.14167,1
0.42427,0.36881,0.13504,1
0.4106,0.36752,0.12718,1
0.39693,0.36625,0.11796,1
0.38326,0.36496,0.1072,1
0.36958,0.36368,0.093468,1
0.51987,0.37554,0.15772,1
0.5061,0.37203,0.15776,1
0.49234,0.36851,0.15684,1
0.47857,0.365,0.15519,1
0.46479,0.36149,0.1524,1
0.45103,0.35797,0.14879,1
0.43726,0.35446,0.14422,1
0.42349,0.35095,0.13871,1
0.40973,0.34743,0.1327,1
0.39595,0.34392,0.12627,1
0.38218,0.3404,0.11944,1
0.36841,0.33688,0.11222,1
0.35465,0.33337,0.1048,1
0.34087,0.32986,0.096293,1
0.3271,0.32634,0.08676,1
0.51997,0.3739,0.15778,1
0.50629,0.36875,0.15787,1
0.49261,0.36359,0.15722,1
0.47893,0.35845,0.15543,1
0.46525,0.35329,0.15303,1
0.45158,0.34814,0.14958,1
0.43791,0.34299,0.14533,1
0.42423,0.33783,0.14037,1
0.41055,0.33268,0.13527,1
0.39687,0.32752,0.13029,1
0.3832,0.32237,0.12503,1
0.36952,0.31721,0.1204,1
0.35585,0.31206,0.11569,1
0.34217,0.3069,0.1114,1
0.32849,0.30175,0.10688,1
0.31481,0.29659,0.1027,1
0.52476,0.36892,0.15789,1
0.51158,0.36218,0.15814,1
0.49841,0.35545,0.15761,1
0.48524,0.34872,0.15612,1
0.47206,0.34198,0.15385,1
0.45889,0.33525,0.15072,1
0.44572,0.32852,0.14693,1
0.43255,0.32178,0.14256,1
0.41937,0.31506,0.1383,1
0.4062,0.30832,0.13413,1
0.39302,0.30159,0.13012,1
0.37985,0.29486,0.12665,1
0.36668,0.28812,0.12347,1
0.35351,0.28139,0.12079,1
0.34034,0.27466,0.11839,1
0.32717,0.26793,0.11652,1
0.52123,0.37098,0.15788,1
0.50882,0.36291,0.15804,1
0.4964,0.35483,0.15745,1
0.48399,0.34676,0.15585,1
0.47157,0.33868,0.15356,1
0.45916,0.3306,0.15027,1
0.44674,0.32252,0.14644,1
0.43433,0.31444,0.14206,1
0.42191,0.30637,0.1377,1
0.4095,0.29829,0.13344,1
0.39708,0.29022,0.12964,1
0.38467,0.28214,0.12628,1
0.37226,0.27406,0.12346,1
0.35984,0.26598,0.12098,1
0.34743,0.2579,0.11893,1
0.33501,0.24983,0.11725,1
0.3226,0.24175,0.11567,1
0.51081,0.34879,0.15714,1
0.49963,0.33946,0.15592,1
0.48845,0.33014,0.1537,1
0.47727,0.32081,0.15076,1
0.46609,0.31149,0.14698,1
0.45492,0.30217,0.14243,1
0.44374,0.29285,0.13742,1
0.43256,0.28352,0.13242,1
0.42138,0.2742,0.12737,1
0.4102,0.26488,0.12275,1
0.39903,0.25555,0.11833,1
0.38785,0.24623,0.11421,1
0.37667,0.23691,0.11032,1
0.36549,0.22758,0.10674,1
0.50985,0.33056,0.15365,1
0.49939,0.32094,0.15134,1
0.48894,0.31132,0.14827,1
0.47848,0.3017,0.14395,1
0.46803,0.2921,0.13899,1
0.45758,0.28248,0.13341,1
0.44712,0.27286,0.12736,1
0.43668,0.26325,0.12094,1
0.42622,0.25363,0.11471,1
0.41577,0.24401,0.10836,1
0.40532,0.23439,0.1018,1
0.39486,0.22478,0.095327,1
0.38441,0.21516,0.091093,1
0.52311,0.34825,0.15632,1
0.51517,0.33675,0.15475,1
0.50722,0.32526,0.15235,1
0.49928,0.31376,0.14868,1
0.49133,0.30227,0.14421,1
0.48339,0.29077,0.13823,1
0.47545,0.27928,0.1312,1
0.4675,0.26779,0.12254,1
0.45956,0.2563,0.1126,1
0.45161,0.2448,0.10044,1
0.44367,0.23331,0.088227,1
0.43572,0.22181,0.085266,1
0.42777,0.21032,0.083232,1
0.51921,0.32031,0.14942,1
0.51369,0.30912,0.14533,1
0.50816,0.29792,0.14016,1
0.50264,0.28672,0.13375,1
0.49711,0.27553,0.12554,1
0.49159,0.26433,0.11544,1
0.48606,0.25314,0.10236,1
0.48053,0.24195,0.086089,1
0.62813,0.37524,0.11122,1
0.6345,0.36582,0.099675,1
0.64087,0.3564,0.081766,1
0.64724,0.34698,0.073029,1
0.65362,0.33755,0.067993,1
0.66,0.32813,0.061299,1
0.66637,0.3187,0.05276,1
0.67274,0.30928,0.041477,1
0.60176,0.34815,0.12632,1
0.6069,0.33896,0.11716,1
0.61203,0.32975,0.10494,1
0.61717,0.32056,0.086464,1
0.6223,0.31137,0.071479,1
0.62743,0.30218,0.064588,1
0.63257,0.29299,0.056187,1
0.6377,0.28379,0.045761,1
0.55751,0.31792,0.13767,1
0.56434,0.31093,0.12985,1
0.57118,0.30394,0.1201,1
0.57802,0.29694,0.10738,1
0.58486,0.28996,0.088837,1
0.5917,0.28297,0.069953,1
0.59853,0.27597,0.062212,1
0.52554,0.29813,0.13663,1
0.53157,0.29036,0.12897,1
0.53759,0.28261,0.11915,1
0.5436,0.27483,0.10626,1
0.54963,0.26707,0.087382,1
0.55565,0.25931,0.069937,1
0.56167,0.25154,0.061979,1
0.46914,0.27207,0.12596,1
0.47723,0.26431,0.11818,1
0.48533,0.25655,0.10755,1
0.49343,0.24879,0.091896,1
0.50153,0.24105,0.078448,1
0.50963,0.23328,0.070771,1
0.51772,0.22553,0.062915,1
0.52581,0.21777,0.052257,1
0.44276,0.25307,0.11183,1
0.44883,0.24291,0.098566,1
0.45492,0.23274,0.085042,1
0.461,0.22257,0.080393,1
0.46707,0.21241,0.073873,1
0.47315,0.20223,0.065513,1
0.39761,0.23783,0.10687,1
0.40737,0.22944,0.09555,1
0.41714,0.22104,0.087888,1
0.4269,0.21265,0.084179,1
0.43667,0.20425,0.078887,1
0.44642,0.19585,0.071594,1
0.45619,0.18745,0.062571,1
0.37339,0.2171,0.095417,1
0.3813,0.20662,0.088949,1
0.38921,0.19613,0.085922,1
0.39711,0.18564,0.081119,1
0.40501,0.17516,0.074304,1
0.41291,0.16467,0.065112,1
0.63909,0.29388,0.052666,1
0.65076,0.28557,0.040921,1
0.66242,0.27726,0.038805,1
0.67408,0.26897,0.037675,1
0.68574,0.26067,0.036492,1
0.6974,0.25236,0.035126,1
0.61023,0.29711,0.06974,1
0.6191,0.28618,0.058826,1
0.62797,0.27525,0.045893,1
0.63684,0.26433,0.042969,1
0.6457,0.2534,0.042771,1
0.65457,0.24247,0.042547,1
0.66345,0.23154,0.042316,1
0.67231,0.22061,0.042101,1
0.68118,0.20968,0.041908,1
0.69005,0.19875,0.041613,1
0.58742,0.27755,0.06821,1
0.59631,0.26731,0.05673,1
0.6052,0.25707,0.046334,1
0.61409,0.24682,0.045232,1
0.62298,0.23658,0.045095,1
0.63187,0.22634,0.044972,1
0.64076,0.21609,0.044862,1
0.55213,0.26445,0.077558,1
0.56066,0.25408,0.064258,1
0.56919,0.2437,0.051462,1
0.57772,0.23331,0.046386,1
0.58625,0.22294,0.046446,1
0.59478,0.21256,0.046428,1
0.60331,0.20218,0.046403,1
0.61184,0.1918,0.046353,1
0.51191,0.25172,0.0868,1
0.51882,0.24035,0.071592,1
0.52574,0.22898,0.06169,1
0.53266,0.2176,0.049316,1
0.53958,0.20623,0.046533,1
0.5465,0.19486,0.04662,1
0.55342,0.18349,0.04662,1
0.56034,0.17211,0.04662,1
0.56726,0.16074,0.04662,1
0.47338,0.23592,0.082803,1
0.47904,0.22358,0.07611,1
0.48469,0.21124,0.066681,1
0.49034,0.19889,0.054636,1
0.496,0.18655,0.04646,1
0.50166,0.1742,0.04662,1
0.50732,0.16186,0.04662,1
0.51297,0.14951,0.04662,1
0.42741,0.21886,0.085735,1
0.43429,0.20644,0.080426,1
0.44117,0.19401,0.072417,1
0.44804,0.18159,0.061838,1
0.45491,0.16916,0.049051,1
0.46178,0.15674,0.046564,1
0.46866,0.14432,0.04662,1
0.47553,0.13189,0.04662,1
0.4824,0.11947,0.04662,1
0.39875,0.18604,0.080882,1
0.40488,0.17326,0.073261,1
0.41102,0.16049,0.063141,1
0.41714,0.14772,0.049613,1
0.42327,0.13494,0.046533,1
0.4294,0.12217,0.04662,1
0.43553,0.10939,0.04662,1
0.44166,0.096624,0.04662,1
0.35146,0.19981,0.090834,1
0.35683,0.1868,0.088092,1
0.3622,0.17379,0.084335,1
0.36757,0.16078,0.078295,1
0.37294,0.14776,0.069769,1
0.37831,0.13476,0.058345,1
0.38368,0.12175,0.047793,1
0.38905,0.10873,0.04662,1
0.39442,0.095722,0.04662,1
0.39979,0.08271,0.04662,1
0.34417,0.21841,0.10575,1
0.3461,0.20451,0.094598,1
0.34802,0.19061,0.089626,1
0.34994,0.1767,0.086995,1
0.35187,0.1628,0.082889,1
0.35379,0.1489,0.076867,1
0.35572,0.135,0.068454,1
0.35764,0.12109,0.057516,1
0.35956,0.10719,0.04787,1
0.36148,0.093298,0.046598,1
0.3634,0.079391,0.04662,1
0.36533,0.06549,0.04662,1
0.57624,0.4606,0.11394,1
0.57222,0.47042,0.10351,1
0.56821,0.48024,0.088121,1
0.5642,0.49006,0.062575,1
0.56018,0.49988,0.046972,1
0.55617,0.5097,0.038589,1
0.55215,0.51951,0.033735,1
0.54813,0.52933,0.030929,1
0.53819,0.46796,0.10951,1
0.53318,0.47775,0.092727,1
0.52816,0.48754,0.068362,1
0.52316,0.49734,0.054476,1
0.51814,0.50714,0.046708,1
0.51312,0.51694,0.042,1
0.50811,0.52673,0.039544,1
0.50309,0.53652,0.038834,1
0.49437,0.46504,0.099786,1
0.48669,0.47261,0.078627,1
0.479,0.48019,0.064198,1
0.47132,0.48777,0.055653,1
0.46363,0.49535,0.050306,1
0.45595,0.50293,0.047141,1
0.45249,0.44332,0.099675,1
0.44515,0.45213,0.075852,1
0.43782,0.46093,0.062224,1
0.43047,0.46975,0.05432,1
0.42314,0.47855,0.049381,1
0.41579,0.48736,0.047152,1
0.40846,0.49617,0.046596,1
0.402,0.40826,0.084583,1
0.39546,0.41882,0.066064,1
0.38893,0.42938,0.056037,1
0.38241,0.43993,0.050232,1
0.37587,0.4505,0.047403,1
0.36934,0.46105,0.046615,1
0.36281,0.4716,0.04662,1
0.53181,0.50326,0.048499,1
0.52552,0.51622,0.040627,1
0.51923,0.52917,0.037581,1
0.51294,0.54213,0.036511,1
0.50664,0.55509,0.036201,1
0.50036,0.56805,0.035848,1
0.47506,0.49955,0.049936,1
0.47051,0.51357,0.044956,1
0.46596,0.52759,0.043746,1
0.46141,0.5416,0.043423,1
0.45686,0.55562,0.043095,1
0.43627,0.46032,0.061887,1
0.4308,0.47352,0.052771,1
0.42531,0.48673,0.047761,1
0.41983,0.49993,0.046519,1
0.41435,0.51313,0.046393,1
0.40887,0.52634,0.046342,1
0.40338,0.53955,0.046299,1
0.40107,0.43179,0.061321,1
0.39072,0.4418,0.052118,1
0.38037,0.45181,0.047773,1
0.37003,0.46182,0.046607,1
0.35967,0.47183,0.04662,1
0.34933,0.48184,0.04662,1
0.33898,0.49184,0.04662,1
0.36213,0.38869,0.060992,1
0.35206,0.39903,0.052076,1
0.34199,0.40937,0.04757,1
0.33192,0.41972,0.046578,1
0.32185,0.43006,0.04662,1
0.31178,0.44041,0.04662,1
0.30172,0.45074,0.04662,1
0.371,0.37865,0.076655,1
0.35836,0.38449,0.060962,1
0.3457,0.39034,0.052335,1
0.33306,0.39619,0.047929,1
0.32041,0.40203,0.046667,1
0.30777,0.40788,0.04662,1
0.29511,0.41373,0.04662,1
0.28247,0.41957,0.04662,1
0.26982,0.42542,0.04662,1
0.35586,0.36734,0.071068,1
0.34213,0.37099,0.058739,1
0.32839,0.37465,0.051632,1
0.31466,0.3783,0.047851,1
0.30093,0.38196,0.046664,1
0.28721,0.38562,0.04662,1
0.27347,0.38928,0.04662,1
0.25974,0.39293,0.04662,1
0.24601,0.39659,0.04662,1
0.31412,0.31892,0.081506,1
0.30373,0.32732,0.063493,1
0.29332,0.33572,0.05407,1
0.28294,0.34412,0.048928,1
0.27254,0.35253,0.046855,1
0.26215,0.36093,0.046609,1
0.25175,0.36933,0.04662,1
0.27913,0.30014,0.070645,1
0.26986,0.31065,0.057291,1
0.26058,0.32117,0.050325,1
0.25131,0.3317,0.046996,1
0.24203,0.34222,0.046554,1
0.23275,0.35274,0.04662,1
0.22348,0.36326,0.04662,1
0.2142,0.37379,0.04662,1
