0.64976,0.28612,0.15774,1
0.65401,0.2996,0.15634,1
0.65827,0.31308,0.1541,1
0.66253,0.32656,0.15076,1
0.66679,0.34004,0.14627,1
0.67105,0.35353,0.14019,1
0.67531,0.36701,0.13296,1
0.67957,0.3805,0.1247,1
0.68383,0.39398,0.11582,1
0.64854,0.29964,0.15662,1
0.64732,0.31316,0.15468,1
0.6461,0.32669,0.15162,1
0.64488,0.34021,0.14736,1
0.64366,0.35374,0.14136,1
0.64245,0.36726,0.13374,1
0.64123,0.38078,0.12463,1
0.64001,0.39431,0.11306,1
0.64202,0.29633,0.15708,1
0.63428,0.30653,0.15524,1
0.62654,0.31675,0.15213,1
0.6188,0.32695,0.14745,1
0.61106,0.33717,0.14096,1
0.60332,0.34737,0.13248,1
0.59559,0.35758,0.12103,1
0.58784,0.36779,0.10497,1
0.63753,0.28981,0.15763,1
0.62531,0.29351,0.156,1
0.61308,0.2972,0.15293,1
0.60085,0.3009,0.14804,1
0.58862,0.30459,0.14141,1
0.57639,0.30829,0.13216,1
0.56416,0.31199,0.11969,1
0.55194,0.31568,0.10178,1
0.63738,0.28328,0.1579,1
0.625,0.28046,0.15704,1
0.61263,0.27763,0.15476,1
0.60025,0.27481,0.15128,1
0.58787,0.27198,0.14641,1
0.57549,0.26916,0.13977,1
0.56312,0.26633,0.13085,1
0.55074,0.26351,0.11932,1
0.53836,0.26067,0.10335,1
0.52598,0.25785,0.079257,1
0.67067,0.31171,0.15239,1
0.67942,0.32105,0.14855,1
0.68817,0.33039,0.14336,1
0.69692,0.33973,0.13689,1
0.70567,0.34907,0.129,1
0.71441,0.35841,0.11928,1
0.72316,0.36775,0.10758,1
0.7319,0.37709,0.09299,1
0.66057,0.30204,0.15545,1
0.67258,0.30443,0.15282,1
0.68461,0.30682,0.14894,1
0.69663,0.30922,0.14378,1
0.70866,0.31161,0.13664,1
0.72068,0.314,0.12742,1
0.73271,0.3164,0.11469,1
0.74473,0.3188,0.096716,1
0.67216,0.29712,0.15372,1
0.68375,0.29219,0.15031,1
0.69533,0.28728,0.14525,1
0.70692,0.28236,0.13824,1
0.71851,0.27744,0.12886,1
0.73011,0.27251,0.11576,1
0.66826,0.29115,0.15479,1
0.67597,0.28027,0.15282,1
0.68367,0.26939,0.1495,1
0.69138,0.25851,0.14438,1
0.69908,0.24763,0.13732,1
0.70678,0.23675,0.128,1
0.71449,0.22586,0.11528,1
0.63857,0.29019,0.15761,1
0.6286,0.28075,0.15742,1
0.61864,0.27131,0.15623,1
0.60867,0.26186,0.15417,1
0.5987,0.25242,0.15095,1
0.58873,0.24298,0.14707,1
0.57876,0.23353,0.14167,1
0.56879,0.22409,0.13504,1
0.55882,0.21464,0.12718,1
0.54886,0.2052,0.11796,1
0.53889,0.19576,0.1072,1
0.52892,0.18631,0.093468,1
0.63987,0.28838,0.15772,1
0.6312,0.27711,0.15776,1
0.62254,0.26586,0.15684,1
0.61387,0.25459,0.15519,1
0.6052,0.24333,0.1524,1
0.59654,0.23207,0.14879,1
0.58787,0.22081,0.14422,1
0.5792,0.20955,0.13871,1
0.57054,0.19829,0.1327,1
0.56186,0.18703,0.12627,1
0.55319,0.17576,0.11944,1
0.54453,0.1645,0.11222,1
0.53586,0.15324,0.1048,1
0.52719,0.14198,0.096293,1
0.51853,0.13071,0.08676,1
0.64096,0.28714,0.15778,1
0.63338,0.27465,0.15787,1
0.62579,0.26215,0.15722,1
0.6182,0.24966,0.15543,1
0.61062,0.23716,0.15303,1
0.60304,0.22467,0.14958,1
0.59545,0.21218,0.14533,1
0.58787,0.19968,0.14037,1
0.58029,0.18719,0.13527,1
0.5727,0.17469,0.13029,1
0.56512,0.1622,0.12503,1
0.55754,0.1497,0.1204,1
0.54996,0.13721,0.11569,1
0.54237,0.12471,0.1114,1
0.53479,0.11222,0.10688,1
0.52721,0.099722,0.1027,1
0.6478,0.28617,0.15789,1
0.64159,0.27275,0.15814,1
0.63538,0.25932,0.15761,1
0.62917,0.24589,0.15612,1
0.62295,0.23247,0.15385,1
0.61674,0.21904,0.15072,1
0.61053,0.20561,0.14693,1
0.60432,0.19219,0.14256,1
0.5981,0.17876,0.1383,1
0.59189,0.16534,0.13413,1
0.58567,0.15191,0.13012,1
0.57946,0.13848,0.12665,1
0.57325,0.12506,0.12347,1
0.56704,0.11164,0.12079,1
0.56083,0.098212,0.11839,1
0.55462,0.084785,0.11652,1
0.64375,0.28562,0.15788,1
0.63897,0.27161,0.15804,1
0.63418,0.25759,0.15745,1
0.62939,0.24358,0.15585,1
0.6246,0.22956,0.15356,1
0.61983,0.21554,0.15027,1
0.61504,0.20152,0.14644,1
0.61025,0.18751,0.14206,1
0.60546,0.17349,0.1377,1
0.60068,0.15948,0.13344,1
0.59589,0.14546,0.12964,1
0.5911,0.13145,0.12628,1
0.58632,0.11743,0.12346,1
0.58153,0.10341,0.12098,1
0.57674,0.089399,0.11893,1
0.57196,0.075379,0.11725,1
0.56717,0.061368,0.11567,1
0.64925,0.26172,0.15714,1
0.6462,0.24749,0.15592,1
0.64316,0.23325,0.1537,1
0.64011,0.21902,0.15076,1
0.63707,0.20479,0.14698,1
0.63402,0.19055,0.14243,1
0.63098,0.17632,0.13742,1
0.62793,0.16208,0.13242,1
0.62489,0.14785,0.12737,1
0.62185,0.13362,0.12275,1
0.6188,0.11939,0.11833,1
0.61576,0.10515,0.11421,1
0.61271,0.090922,0.11032,1
0.60967,0.07668,0.10674,1
0.65974,0.24679,0.15365,1
0.65744,0.23277,0.15134,1
0.65515,0.21875,0.14827,1
0.65286,0.20473,0.14395,1
0.65056,0.19072,0.13899,1
0.64827,0.1767,0.13341,1
0.64597,0.16268,0.12736,1
0.64368,0.14867,0.12094,1
0.64139,0.13465,0.11471,1
0.6391,0.12063,0.10836,1
0.63681,0.10661,0.1018,1
0.63452,0.092594,0.095327,1
0.63222,0.078574,0.091093,1
0.65926,0.26889,0.15632,1
0.6601,0.25494,0.15475,1
0.66094,0.24099,0.15235,1
0.66178,0.22705,0.14868,1
0.66262,0.2131,0.14421,1
0.66346,0.19915,0.13823,1
0.6643,0.18521,0.1312,1
0.66514,0.17126,0.12254,1
0.66598,0.15732,0.1126,1
0.66682,0.14337,0.10044,1
0.66766,0.12942,0.088227,1
0.6685,0.11547,0.085266,1
0.66933,0.10152,0.083232,1
0.67343,0.2445,0.14942,1
0.67599,0.23228,0.14533,1
0.67855,0.22006,0.14016,1
0.68111,0.20784,0.13375,1
0.68367,0.19562,0.12554,1
0.68623,0.1834,0.11544,1
0.68879,0.17118,0.10236,1
0.69134,0.15897,0.086089,1
0.72525,0.35493,0.11122,1
0.73607,0.35145,0.099675,1
0.74691,0.34796,0.081766,1
0.75773,0.34448,0.073029,1
0.76857,0.34099,0.067993,1
0.7794,0.33752,0.061299,1
0.79023,0.33403,0.05276,1
0.80105,0.33055,0.041477,1
0.72122,0.31734,0.12632,1
0.73093,0.31328,0.11716,1
0.74065,0.3092,0.10494,1
0.75036,0.30514,0.086464,1
0.76007,0.30107,0.071479,1
0.76978,0.297,0.064588,1
0.7795,0.29293,0.056187,1
0.78921,0.28886,0.045761,1
0.70505,0.26625,0.13767,1
0.71474,0.26496,0.12985,1
0.72443,0.26368,0.1201,1
0.73413,0.2624,0.10738,1
0.74382,0.26112,0.088837,1
0.75351,0.25984,0.069953,1
0.76321,0.25854,0.062212,1
0.6921,0.23095,0.13663,1
0.70163,0.22856,0.12897,1
0.71115,0.22616,0.11915,1
0.72068,0.22376,0.10626,1
0.73022,0.22137,0.087382,1
0.73974,0.21897,0.069937,1
0.74927,0.21658,0.061979,1
0.66379,0.17564,0.12596,1
0.67494,0.17453,0.11818,1
0.68611,0.17342,0.10755,1
0.69726,0.17231,0.091896,1
0.70842,0.17121,0.078448,1
0.71958,0.1701,0.070771,1
0.73073,0.16899,0.062915,1
0.74189,0.16788,0.052257,1
0.65474,0.14441,0.11183,1
0.6658,0.14016,0.098566,1
0.67686,0.13592,0.085042,1
0.68792,0.13166,0.080393,1
0.69897,0.12741,0.073873,1
0.71003,0.12316,0.065513,1
0.62862,0.10456,0.10687,1
0.64148,0.10398,0.09555,1
0.65435,0.1034,0.087888,1
0.66721,0.10281,0.084179,1
0.68008,0.10223,0.078887,1
0.69294,0.10164,0.071594,1
0.7058,0.10106,0.062571,1
0.62236,0.073304,0.095417,1
0.63505,0.069936,0.088949,1
0.64774,0.06656,0.085922,1
0.66043,0.063183,0.081119,1
0.67311,0.059806,0.074304,1
0.6858,0.056429,0.065112,1
0.78408,0.29766,0.052666,1
0.79839,0.29832,0.040921,1
0.81269,0.29898,0.038805,1
0.82699,0.29964,0.037675,1
0.84129,0.30031,0.036492,1
0.85559,0.30096,0.035126,1
0.75937,0.2824,0.06974,1
0.7731,0.27927,0.058826,1
0.78682,0.27615,0.045893,1
0.80054,0.27301,0.042969,1
0.81426,0.26988,0.042771,1
0.82798,0.26675,0.042547,1
0.84171,0.26363,0.042316,1
0.85543,0.2605,0.042101,1
0.86915,0.25737,0.041908,1
0.88288,0.25425,0.041613,1
0.75348,0.25293,0.06821,1
0.7668,0.25036,0.05673,1
0.78012,0.24778,0.046334,1
0.79344,0.24521,0.045232,1
0.80676,0.24263,0.045095,1
0.82007,0.24005,0.044972,1
0.83339,0.23748,0.044862,1
0.7338,0.22085,0.077558,1
0.74691,0.21795,0.064258,1
0.76003,0.21504,0.051462,1
0.77315,0.21213,0.046386,1
0.78626,0.20923,0.046446,1
0.79938,0.20632,0.046428,1
0.8125,0.20342,0.046403,1
0.82561,0.20051,0.046353,1
0.71,0.18602,0.0868,1
0.72246,0.18133,0.071592,1
0.73492,0.17665,0.06169,1
0.74739,0.17197,0.049316,1
0.75985,0.16729,0.046533,1
0.77231,0.16261,0.04662,1
0.78477,0.15793,0.04662,1
0.79724,0.15325,0.04662,1
0.80969,0.14856,0.04662,1
0.68942,0.14981,0.082803,1
0.70149,0.14359,0.07611,1
0.71356,0.13736,0.066681,1
0.72562,0.13113,0.054636,1
0.73769,0.12491,0.04646,1
0.74977,0.11868,0.04662,1
0.76184,0.11246,0.04662,1
0.7739,0.10624,0.04662,1
0.66378,0.10802,0.085735,1
0.67685,0.10249,0.080426,1
0.68993,0.096953,0.072417,1
0.703,0.091418,0.061838,1
0.71608,0.085879,0.049051,1
0.72915,0.080344,0.046564,1
0.74223,0.074805,0.04662,1
0.7553,0.06927,0.04662,1
0.76838,0.063733,0.04662,1
0.66147,0.064511,0.080882,1
0.67418,0.058235,0.073261,1
0.68689,0.051972,0.063141,1
0.69959,0.0457,0.049613,1
0.7123,0.039424,0.046533,1
0.725,0.033161,0.04662,1
0.73771,0.026885,0.04662,1
0.75041,0.020613,0.04662,1
0.61576,0.04617,0.090834,1
0.62801,0.039243,0.088092,1
0.64027,0.032315,0.084335,1
0.65252,0.025387,0.078295,1
0.66477,0.01846,0.069769,1
0.67703,0.011541,0.058345,1
0.68928,0.0046136,0.047793,1
0.70154,-0.0023141,0.04662,1
0.71379,-0.0092418,0.04662,1
0.72604,-0.016169,0.04662,1
0.59855,0.056306,0.10575,1
0.60864,0.046558,0.094598,1
0.61873,0.036807,0.089626,1
0.62882,0.027046,0.086995,1
0.63891,0.017294,0.082889,1
0.64901,0.0075424,0.076867,1
0.6591,-0.0022093,0.068454,1
0.66919,-0.01197,0.057516,1
0.67928,-0.021722,0.04787,1
0.68937,-0.03147,0.046598,1
0.69946,-0.041231,0.04662,1
0.70955,-0.050982,0.04662,1
0.63175,0.39009,0.11394,1
0.62253,0.39534,0.10351,1
0.61332,0.40059,0.088121,1
0.6041,0.40584,0.062575,1
0.59488,0.41109,0.046972,1
0.58566,0.41634,0.038589,1
0.57644,0.42159,0.033735,1
0.56723,0.42684,0.030929,1
0.59727,0.37241,0.10951,1
0.58728,0.37702,0.092727,1
0.57729,0.38163,0.068362,1
0.56731,0.38625,0.054476,1
0.55732,0.39087,0.046708,1
0.54732,0.39548,0.042,1
0.53733,0.40009,0.039544,1
0.52734,0.40471,0.038834,1
0.56459,0.34307,0.099786,1
0.55387,0.34428,0.078627,1
0.54314,0.34551,0.064198,1
0.53242,0.34674,0.055653,1
0.52169,0.34796,0.050306,1
0.51097,0.34918,0.047141,1
0.54503,0.30014,0.099675,1
0.53381,0.30254,0.075852,1
0.52261,0.30495,0.062224,1
0.51139,0.30735,0.05432,1
0.50019,0.30976,0.049381,1
0.48897,0.31216,0.047152,1
0.47777,0.31457,0.046596,1
0.52692,0.24139,0.084583,1
0.51526,0.24567,0.066064,1
0.50361,0.24995,0.056037,1
0.49196,0.25423,0.050232,1
0.4803,0.25851,0.047403,1
0.46865,0.26279,0.046615,1
0.457,0.26707,0.04662,1
0.57047,0.39625,0.048499,1
0.55752,0.40257,0.040627,1
0.54458,0.40888,0.037581,1
0.53163,0.4152,0.036511,1
0.51868,0.42151,0.036201,1
0.50574,0.42783,0.035848,1
0.52809,0.35831,0.049936,1
0.51586,0.36653,0.044956,1
0.50364,0.37476,0.043746,1
0.4914,0.38299,0.043423,1
0.47918,0.39122,0.043095,1
0.52178,0.30351,0.061887,1
0.50932,0.31052,0.052771,1
0.49685,0.31753,0.047761,1
0.48439,0.32454,0.046519,1
0.47194,0.33155,0.046393,1
0.45948,0.33856,0.046342,1
0.44701,0.34557,0.046299,1
0.51167,0.25934,0.061321,1
0.49735,0.26083,0.052118,1
0.48303,0.26232,0.047773,1
0.46872,0.26382,0.046607,1
0.4544,0.2653,0.04662,1
0.44008,0.2668,0.04662,1
0.42576,0.26829,0.04662,1
0.50762,0.20139,0.060992,1
0.49331,0.20332,0.052076,1
0.47901,0.20524,0.04757,1
0.4647,0.20717,0.046578,1
0.4504,0.2091,0.04662,1
0.43609,0.21103,0.04662,1
0.42179,0.21296,0.04662,1
0.5208,0.19896,0.076655,1
0.50724,0.19576,0.060962,1
0.49367,0.19256,0.052335,1
0.48012,0.18936,0.047929,1
0.46656,0.18616,0.046667,1
0.453,0.18295,0.04662,1
0.43943,0.17975,0.04662,1
0.42587,0.17655,0.04662,1
0.41232,0.17335,0.04662,1
0.51586,0.18072,0.071068,1
0.5028,0.17513,0.058739,1
0.48974,0.16953,0.051632,1
0.47667,0.16393,0.047851,1
0.46361,0.15834,0.046664,1
0.45055,0.15275,0.04662,1
0.43748,0.14716,0.04662,1
0.42442,0.14156,0.04662,1
0.41136,0.13596,0.04662,1
0.51288,0.11686,0.081506,1
0.49952,0.11706,0.063493,1
0.48615,0.11726,0.05407,1
0.47279,0.11746,0.048928,1
0.45943,0.11766,0.046855,1
0.44607,0.11786,0.046609,1
0.4327,0.11806,0.04662,1
0.49694,0.080498,0.070645,1
0.48316,0.083055,0.057291,1
0.46936,0.085606,0.050325,1
0.45557,0.088166,0.046996,1
0.44178,0.090727,0.046554,1
0.42799,0.093274,0.04662,1
0.4142,0.095835,0.04662,1
0.4004,0.098395,0.04662,1
