0.209,0.189,0.189,0.189,0.189,0.189
-0.827,-0.817,-0.817,-0.817,-0.817,-0.817
0.329,0.159,0.159,0.159,0.159,0.159
0.49472,0.49472,0.49472,0.49472,0.49472,0.49472
0.16889,0.16889,0.16889,0.16889,0.16889,0.16889
0.56348,0.56348,0.56348,0.56348,0.56348,0.56348
0.6397,0.6397,0.6397,0.6397,0.6397,0.6397
2
