0.665,0.665,0.655,0.655,0.655,0.625,0.635,0.635
0.495,0.655,0.655,0.715,0.785,0.805,0.805,0.805
0.1147,0.0647,0.0747,0.0747,0.0747,0.0647,0.0647,0.0647
-0.36429,-0.36429,-0.35557,-0.35557,-0.30152,-0.30152,-0.30152,-0.30152
0,0,0,0,0,0,0,0
0,0,0,0,0,0,0,0
0.93128,0.93128,0.93465,0.93465,0.95346,0.95346,0.95346,0.95346
299
4
375
