0.427,0.377,0.377,0.367,0.367,0.367
0.062,0.832,0.862,0.862,0.862,0.862
0.0647,0.0547,0.2047,0.2047,0.2147,0.2147
0.52728,0.49748,0.4744,0.46659,0.46659,0.46659
0,0,0,0,0,0
0,0,0,0,0,0
-0.84969,-0.86748,-0.88031,-0.88447,-0.88447,-0.88447
250
8
374
