0.104,0.104,0.104,0.074,0.014,0.004,0.004,0.004,0.004
0.195,-0.125,-0.135,-0.235,-0.225,-0.235,-0.225,-0.235,-0.235
0.0537,0.0837,0.0837,0.0837,0.0837,0.0737,0.0737,0.0737,0.0737
-0.9472,-0.9472,-0.94822,-0.96439,-0.94633,-0.94633,-0.94736,-0.94837,-0.94837
0,0,0,0,0,0,0,0,0
0,0,0,0,0,0,0,0,0
0.32063,0.32063,0.31762,0.26447,0.32319,0.32319,0.32016,0.31715,0.31715
301
11
374
