0.516,0.516,0.516,0.526,0.516,0.516,0.526,0.526,0.526,0.526,0.526,0.526,0.526,0.526,0.526,0.526,0.526
0.013,0.833,0.843,0.843,0.843,0.843,0.843,0.843,0.843,0.843,0.843,0.843,0.843,0.843,0.843,0.843,0.843
0.1127,0.1027,0.0927,0.0927,0.0927,0.1027,0.0927,0.1027,0.0927,0.1027,0.0927,0.1027,0.0927,0.1027,0.0927,0.1027,0.1027
0.38006,0.38006,0.38006,0.38006,0.38006,0.38006,0.38006,0.37146,0.37146,0.37146,0.37146,0.37146,0.37146,0.37146,0.37146,0.37146,0.37146
0,0,0,0,0,0,0,0,0,0,0,0,0,0,0,0,0
0,0,0,0,0,0,0,0,0,0,0,0,0,0,0,0,0
-0.92496,-0.92496,-0.92496,-0.92496,-0.92496,-0.92496,-0.92496,-0.92845,-0.92845,-0.92845,-0.92845,-0.92845,-0.92845,-0.92845,-0.92845,-0.92845,-0.92845
244
5
376
