0.347,0.297,0.297,0.297,0.297,0.297,0.297,0.297,0.297,0.297,0.297,0.297,0.297,0.297,0.297,0.297,0.297
0.884,0.944,0.934,0.944,0.934,0.944,0.934,0.944,0.934,0.944,0.934,0.944,0.934,0.944,0.934,0.944,0.944
0.0467,0.1767,0.1767,0.1767,0.1767,0.1767,0.1767,0.1767,0.1767,0.1767,0.1767,0.1767,0.1767,0.1767,0.1767,0.1767,0.1767
0.48311,0.48311,0.48311,0.48311,0.48311,0.48311,0.48311,0.48311,0.48311,0.48311,0.48311,0.48311,0.48311,0.48311,0.48311,0.48311,0.48311
0,0,0,0,0,0,0,0,0,0,0,0,0,0,0,0,0
0,0,0,0,0,0,0,0,0,0,0,0,0,0,0,0,0
-0.87556,-0.87556,-0.87556,-0.87556,-0.87556,-0.87556,-0.87556,-0.87556,-0.87556,-0.87556,-0.87556,-0.87556,-0.87556,-0.87556,-0.87556,-0.87556,-0.87556
369
4
381
