0.927,0.927,0.917,0.897,0.907,0.907
0.721,0.481,0.451,0.461,0.461,0.461
0.1417,0.0717,0.0717,0.1917,0.2017,0.2017
-0.14756,-0.078179,-0.088105,-0.07817,-0.07817,-0.07817
0,0,0,0,0,0
0,0,0,0,0,0
0.98905,0.99694,0.99611,0.99694,0.99694,0.99694
251
2
385
