0.188,0.078,0.078,0.078,0.078,0.078,0.078,0.078,0.078,0.078,0.078,0.078,0.078,0.078,0.078,0.078,0.078
-0.444,-0.434,-0.434,-0.434,-0.434,-0.434,-0.434,-0.434,-0.434,-0.434,-0.434,-0.434,-0.434,-0.434,-0.434,-0.434,-0.434
0.0567,0.0667,0.0767,0.0667,0.0767,0.0767,0.0667,0.0767,0.0667,0.0767,0.0767,0.0667,0.0767,0.0667,0.0767,0.0667,0.0667
-0.99366,-0.99366,-0.99366,-0.99366,-0.99378,-0.99366,-0.99366,-0.99366,-0.99366,-0.99378,-0.99366,-0.99366,-0.99366,-0.99366,-0.99366,-0.99366,-0.99366
0,0,0,0,0,0,0,0,0,0,0,0,0,0,0,0,0
0,0,0,0,0,0,0,0,0,0,0,0,0,0,0,0,0
0.11243,0.11243,0.11243,0.11243,0.11132,0.11244,0.11244,0.11244,0.11244,0.11133,0.11245,0.11245,0.11245,0.11245,0.11245,0.11245,0.11245
301
9
362
