0.313,0.363,0.353,0.353,0.353
0.014,-0.126,-0.126,-0.126,-0.126
0.0537,0.0837,0.0937,0.1037,0.1037
-0.94946,-0.92761,-0.92898,-0.93033,-0.93033
0,0,0,0,0
0,0,0,0,0
-0.3139,-0.37356,-0.37012,-0.36672,-0.36672
325
6
378
