0.02,0.047,0.133,0.975,0.141,0.795,0.872,0.336,0.829,0.179,0.728,0.788,0.974,0.195,0.711,0.016,0.236,0.074,0.109,0.171,0.376
-0.921,0.662,0.675,-0.197,0.1,-0.59,-0.149,-0.078,0.217,0.556,0.579,0.059,0.394,0.093,-0.688,0.359,-0.051,0.076,0.081,0.785,-0.948
0.0467,0.0467,0.0467,0.0467,0.0467,0.0467,0.0467,0.0467,0.0467,0.0467,0.0467,0.0467,0.0467,0.0467,0.0467,0.0467,0.0467,0.0467,0.0467,0.0467,0.0467
-0.9689,0.77002,-0.80313,-0.3013,0.97544,-0.71316,-0.077919,-0.96247,0.53342,-0.73379,-0.28286,-0.67943,-0.16752,-0.95159,-0.8538,-0.96664,-0.64745,0.99895,0.94596,0.64716,-0.72289
0,0,0,0,0,0,0,0,0,0,0,0,0,0,0,0,0,0,0,0,0
0,0,0,0,0,0,0,0,0,0,0,0,0,0,0,0,0,0,0,0.039968,0.039968
-0.24745,-0.63802,0.59581,-0.95353,0.22026,-0.701,-0.99696,-0.2714,0.84585,0.67938,-0.95916,-0.73374,-0.98587,-0.30738,-0.52061,0.25613,0.76211,0.04587,0.32427,-0.7613,-0.6898
436,394,425,439,429,432,434,436,441,434,441,441,440,429,434,429,441,417,433,441,439
