0.85,0.88,0.53,0.58,0.08,0.77,0.87,0.03,0.12,0.28,0.12,0.57,0.1,0.94,0.99,0.13,0.47,0.35,0.9,0.29,0.17,0.21,0.75,0.13,0.44,0.46,0.3,0.08,0.34,0.6,0.69,0.61,0.89,0.8,0.11,0.74,0.37,0.2,0.23,0.29,0.11,0.7,0.18,0.27,0.05,0.09,0.1,0.16,0.9,0.92
0.86,-1,0.61,0.48,0.32,0.86,0.69,-0.28,-0.71,0.39,0.71,-0.17,-0.67,0.48,0.57,0.88,-0.95,-0.9,0.98,-0.07,-0.89,0.35,0.12,0.79,0.8,1,0.01,0.81,0.5,0.46,-0.21,-0.79,0.47,0.37,-0.34,0.47,0.37,0.55,-0.03,0.06,-0.42,-0.14,0.6,0.35,0.55,-0.15,-0.75,-0.37,0.11,0.12
0,0,0,0,0,0,0,0,0,0,0,0,0,0,0,0,0,0,0,0,0,0,0,0,0,0,0,0,0,0,0,0,0,0,0,0,0,0,0,0,0,0,0,0,0,0,0,0,0,0
0.96659,0.93792,0.99998,0.69972,0.33499,0.049979,0.98655,0.99936,0.12963,0.99349,0.75128,0.16089,0.97385,0.42285,0.52694,0.79862,0.98308,0.87313,0.79657,0.54097,0.8699,0.27308,0.95409,0.68892,0.28595,0.8046,0.91744,0.33349,0.14944,0.63391,0.63776,0.98813,0.22311,0.76535,0.70795,0.40465,0.61437,0.9391,0.63391,0.9551,0.11136,0.3382,0.66433,0.98865,0.38019,0.76535,0.30506,0.62879,0.61706,0.49688
0,0,0,0,0,0,0,0,0,0,0,0,0,0,0,0,0,0,0,0,0,0,0,0,0,0,0,0,0,0,0,0,0,0,0,0,0,0,0,0,0,0,0,0,0,0,0,0,0,0
0,0,0,0,0,0,0,0,0,0,0,0,0,0,0,0,0,0,0,0,0,0,0,0,0,0,0,0,0,0,0,0,0,0,0,0,0,0,0,0,0,0,0,0,0,0,0,0,0,0
0.25631,0.34684,-0.0057963,-0.71442,0.94222,-0.99875,0.16347,-0.035789,-0.99156,0.11396,-0.65998,0.98697,0.2272,0.9062,-0.8499,-0.60183,0.18316,0.48748,0.60455,0.84104,-0.49323,0.96199,0.29953,-0.72484,-0.95824,-0.59382,0.39788,-0.94275,-0.98877,0.77341,0.77023,0.15359,-0.97479,0.64361,0.70626,0.91447,0.78901,-0.34365,0.77341,-0.29628,0.99378,-0.94108,0.74744,-0.15023,-0.92491,0.64361,-0.95233,-0.77757,-0.78692,-0.86782
