-0.74978,0.58982,-0.29991
-0.59101,0.73124,-0.34058
-0.70795,0.60824,-0.35896
-0.2594,0.90791,0.32924
-0.59892,0.79856,-0.059892
-0.41897,0.73819,-0.52871
-0.32905,0.87746,-0.34899
-0.39106,0.91247,0.12033
-0.9742,0.21091,-0.080346
-0.81963,0.41981,-0.38982
-0.66329,0.72359,-0.19095
-0.58865,0.80814,-0.019954
-0.62284,0.71325,0.32147
-0.96188,0.13025,0.24047
-0.92912,0.36965,-0.0099905
-0.59937,0.69927,-0.38959
-0.77891,0.61913,-0.09986
-0.51873,0.63844,-0.56861
-0.94693,0.31897,0.039871
-0.93715,0.20936,-0.27915
-0.53892,0.81836,-0.1996
-0.5291,0.67885,-0.50914
-0.93673,0.34878,0.029896
-0.50065,0.75098,-0.43056
-0.79642,0.56745,-0.20906
-0.91853,0.27955,-0.27955
-0.91702,0.39871,0.0099677
-0.34967,0.86917,-0.34967
-0.23015,0.97063,-0.070046
-0.66953,0.73948,-0.069951
-0.82727,0.50833,0.23921
-0.36965,0.88916,-0.26974
-0.5712,0.78164,-0.25053
-0.83824,0.44906,-0.30935
-0.23975,0.96898,-0.059937
-0.94948,0.30983,0.049973
-0.9132,0.25088,-0.32113
-0.66299,0.73331,-0.15068
-0.6686,0.479,-0.56881
-0.90199,0.40088,-0.16035
-0.84025,0.43013,-0.3301
-0.37188,0.87443,-0.31158
-0.51013,0.85021,-0.13003
-0.62915,0.72902,0.26964
-0.96038,0.10004,-0.2601
-0.6168,0.75608,0.21886
-0.83254,0.47144,-0.29089
-0.9588,0.27965,0.049938
-0.64177,0.68188,-0.35097
-0.49818,0.86684,0.019927
-0.9314,0.36054,-0.050075
-0.4389,0.82793,-0.34913
-0.89892,0.39952,-0.17978
-0.66777,0.66777,0.3289
-0.84788,0.34913,-0.399
-0.90755,0.41887,0.029919
-0.59101,0.73124,0.34058
-0.54948,0.74929,-0.36965
-0.39106,0.91247,-0.12033
-0.53221,0.78326,-0.32134
-0.32854,0.89602,-0.29867
-0.68979,0.41987,0.58982
-0.69021,0.72022,-0.070021
-0.62331,0.55294,0.55294
-0.77779,0.41881,-0.46867
-0.70147,0.63133,0.3307
-0.70053,0.6605,0.2702
-0.92352,0.28107,-0.26099
-0.40076,0.91173,0.090171
-0.48014,0.63019,0.61018
-0.98675,0.10964,0.11961
-0.48111,0.81187,0.33076
-0.82942,0.37973,-0.40971
-0.97479,0.13064,-0.18089
-0.91023,0.25006,0.33008
-0.94768,0.31922,0
-0.96284,0.23068,0.14041
-0.63841,0.76808,-0.049875
-0.98631,0.069739,0.14944
-0.501,0.86173,-0.08016
-0.56972,0.7996,-0.18991
-0.79556,0.55689,-0.23867
-0.46753,0.83558,0.28848
-0.63869,0.76843,-0.039918
-0.57316,0.79438,0.20111
-0.64968,0.68966,0.31984
-0.96284,0.26077,-0.070207
-0.63019,0.75023,-0.20006
-0.8447,0.48269,-0.23129
-0.93121,0.10013,-0.35046
-0.74126,0.5309,-0.4107
-0.72731,0.66753,0.15941
-0.76429,0.64361,-0.040226
-0.92352,0.28107,-0.26099
-0.6269,0.70651,-0.32838
-0.86848,0.44921,-0.20963
-0.84524,0.37787,-0.37787
-0.74493,0.6644,-0.0604
-0.7205,0.49034,0.49034
-0.80044,0.33018,-0.50028
-0.90068,0.2702,-0.34026
-0.53034,0.83054,-0.17011
-0.39847,0.90652,-0.13946
-0.49998,0.73996,0.44998
-0.91775,0.38905,-0.079805
-0.69983,0.51987,-0.48988
-0.8102,0.47012,0.35009
-0.48007,0.77012,-0.42006
-0.72166,0.57132,0.3909
-0.65997,0.66997,0.33998
-0.88203,0.37085,0.29067
-0.8283,0.55886,0.039918
-0.63869,0.63869,-0.42912
-0.39855,0.91666,0.029891
-0.88563,0.32838,-0.32838
-0.8198,0.3999,0.4099
-0.30112,0.95353,0.010037
-0.38918,0.84822,-0.35925
-0.77965,0.54975,0.29987
-0.95105,0.28031,-0.13014
-0.61006,0.79008,0.060006
-0.97805,0.05988,-0.1996
-0.86013,0.51008,0
-0.66226,0.70239,0.26089
-0.84249,0.47139,-0.26077
-0.95828,0.2795,0.059892
-0.74787,0.55841,0.35898
-0.47914,0.83849,-0.25953
-0.51008,0.86013,0
-0.79984,0.59988,-0.019996
-0.53748,0.82613,-0.16921
-0.77949,0.51966,-0.34977
-0.79135,0.3506,-0.50085
-0.7586,0.6488,-0.059889
-0.41078,0.91173,0
-0.82078,0.56053,0.1101
-0.65708,0.62722,-0.41814
-0.562,0.67239,-0.48171
-0.67699,0.67699,0.28872
-0.68037,0.71039,-0.1801
-0.73095,0.63082,0.26034
-0.62174,0.50141,-0.60169
-0.59827,0.76778,0.22934
-0.93135,0.31045,-0.19028
-0.3881,0.83591,0.3881
-0.91867,0.36946,0.1398
-0.76317,0.45188,0.46192
-0.77073,0.44042,-0.46044
-0.85966,0.43982,-0.2599
-0.80217,0.45122,-0.39106
-0.78882,0.41937,0.44933
-0.56132,0.79186,0.24057
-0.66089,0.64087,-0.39053
-0.62818,0.66807,-0.39885
-0.70742,0.6576,0.25906
-0.52942,0.82909,0.1798
-0.46208,0.87394,0.15068
-0.72731,0.66753,-0.15941
-0.55944,0.7992,0.21978
-0.8782,0.4391,0.18961
-0.77984,0.55989,-0.27994
-0.92543,0.36818,0.089558
-0.82748,0.5583,0.059818
-0.84945,0.31979,0.41973
-0.7181,0.62834,-0.29921
-0.87615,0.37834,0.29869
-0.88048,0.34019,-0.33018
-0.71935,0.4496,-0.52952
-0.6009,0.63095,0.49074
-0.81984,0.55989,-0.11998
-0.909,0.29967,0.28968
-0.80814,0.58865,0.019954
-0.95919,0.2398,0.14987
-0.46843,0.8671,0.16943
-0.83824,0.44906,-0.30935
-0.71935,0.52952,-0.4496
-0.68966,0.67966,-0.24988
-0.9095,0.3698,-0.1899
-0.61089,0.79115,0.030044
-0.79242,0.43132,-0.43132
-0.65199,0.67205,-0.35107
-0.72876,0.48917,-0.47919
-0.61058,0.76072,-0.22021
-0.69135,0.60117,-0.40078
-0.96792,0.24946,0.029936
-0.67276,0.73301,0.10041
-0.72949,0.61957,-0.2898
-0.88796,0.44897,0.099771
-0.7629,0.58222,0.28107
-0.70147,0.3307,-0.63133
-0.67885,0.5291,-0.50914
-0.94038,0.34014,0
-0.97649,0.17936,0.11957
-0.55994,0.78992,-0.24998
-0.86961,0.45979,-0.17992
-0.60715,0.77636,-0.16921
-0.94089,0.28027,-0.19018
-0.93673,0.34878,0.029896
-0.41831,0.90634,-0.059758
-0.49806,0.86663,0.029884
-0.88778,0.399,-0.22943
-0.37043,0.92106,-0.12014
-0.91009,0.39004,0.14001
-0.92051,0.38021,-0.09005
-0.37817,0.92552,0.019904
-0.85829,0.499,-0.11976
-0.6707,0.69073,-0.27028
-0.96758,0.24938,-0.0399
-0.71207,0.50146,-0.49143
-0.36893,0.91734,0.14957
-0.88849,0.32944,-0.31946
-0.55706,0.82564,-0.089527
-0.59845,0.75803,-0.25933
-0.60848,0.76808,0.1995
-0.88978,0.3999,0.21995
-0.97283,0.22064,-0.070204
-0.73202,0.46127,-0.50138
-0.92088,0.34032,-0.19018
-0.63616,0.7455,-0.1988
-0.62806,0.77759,0.029907
-0.79936,0.59952,-0.039968
-0.95048,0.26013,-0.17009
-0.69774,0.60803,-0.37877
-0.30946,0.84852,0.42925
-0.2795,0.95828,0.059892
-0.31973,0.91922,-0.2298
-0.73919,0.38957,0.5494
-0.57077,0.80108,-0.18024
-0.92198,0.38082,0.070151
-0.94312,0.33109,-0.030099
-0.91375,0.31128,0.26107
-0.60643,0.58655,-0.53684
-0.76287,0.57215,0.30113
-0.64984,0.67983,-0.33992
-0.45011,0.89022,-0.070018
-0.90009,0.23002,0.37004
-0.64968,0.66967,-0.35982
-0.80152,0.59112,-0.090171
-0.49074,0.87131,0
-0.76214,0.62174,-0.18051
-0.43091,0.9019,-0.030063
-0.56065,0.80092,0.21024
-0.91525,0.37804,-0.13928
-0.98133,0.12016,-0.1502
-0.23959,0.96836,-0.069881
-0.67368,0.61335,-0.41225
-0.83812,0.34922,-0.41906
-0.59761,0.71714,-0.35857
-0.63092,0.71103,0.31045
-0.43963,0.79932,-0.40965
-0.66767,0.6577,0.34878
-0.87302,0.39135,-0.29101
-0.41923,0.87838,0.22958
-0.85235,0.28077,-0.44122
-0.82515,0.49708,-0.26842
-0.77236,0.61187,-0.17052
-0.7472,0.60773,0.26899
-0.71914,0.65921,0.21974
-0.95067,0.31022,0
-0.32854,0.89602,-0.29867
-0.66903,0.63907,-0.37945
-0.49826,0.86697,-0.0099652
-0.87113,0.47061,-0.14018
-0.56793,0.81702,-0.099637
-0.56053,0.7407,-0.37035
-0.75992,0.64994,-0.009999
-0.58113,0.81158,-0.060117
-0.63285,0.55249,-0.54245
-0.90841,0.2296,0.34939
-0.59056,0.70067,-0.40038
-0.62209,0.67226,-0.40135
-0.85364,0.29124,-0.43184
-0.67178,0.57152,0.47125
-0.83645,0.54768,-0.019916
-0.63841,0.72818,-0.24938
-0.67205,0.67205,-0.31095
-0.73952,0.63958,-0.20986
-0.69815,0.67821,0.22939
-0.68856,0.59874,-0.40914
-0.67128,0.73139,-0.12023
-0.94801,0.2395,0.20956
-0.91867,0.36946,-0.1398
-0.66089,0.71096,0.24032
-0.86883,0.3695,0.32956
-0.65268,0.62256,-0.43177
-0.77671,0.48793,-0.39831
-0.5704,0.76053,-0.31022
-0.38824,0.90589,0.16923
-0.60803,0.61799,-0.49838
-0.64851,0.74828,-0.13968
-0.89602,0.41814,-0.14934
-0.58172,0.8124,-0.040119
-0.51077,0.85128,0.12018
-0.62756,0.74709,-0.21915
-0.60036,0.68041,-0.42025
-0.72054,0.65049,-0.24018
-0.95105,0.13014,-0.28031
-0.95709,0.18942,-0.21933
-0.90886,0.3995,-0.11985
-0.84945,0.31979,-0.41973
-0.55138,0.78196,-0.29073
-0.30107,0.95339,-0.020071
-0.7807,0.3303,-0.53048
-0.94976,0.13997,-0.27993
-0.71103,0.4106,-0.57083
-0.62012,0.74015,0.26005
-0.52091,0.85149,0.060105
-0.80879,0.44933,-0.37943
-0.61079,0.67087,0.42055
-0.58643,0.70571,-0.39758
-0.70679,0.68688,-0.16923
-0.85128,0.48072,-0.21032
-0.68719,0.63739,-0.34857
-0.7121,0.56166,-0.42124
-0.47835,0.77732,-0.40859
-0.73922,0.62934,0.23975
-0.8831,0.35123,-0.31109
-0.56901,0.6888,-0.44921
-0.58146,0.75188,-0.31078
-0.94571,0.24887,-0.20905
-0.6515,0.73168,-0.20046
-0.81203,0.58146,-0.050125
-0.93573,0.35215,0.020123
-0.53144,0.8122,-0.24065
-0.92695,0.23921,-0.28905
-0.93088,0.36034,0.060057
-0.43032,0.90068,0.060045
-0.61861,0.59865,0.50886
-0.88026,0.27008,-0.39012
-0.44843,0.76732,-0.4584
-0.72166,0.57132,-0.3909
-0.76732,0.53812,-0.34878
-0.48871,0.85773,-0.15958
-0.71668,0.69677,-0.029861
-0.73662,0.49772,-0.4579
-0.74966,0.59973,-0.27987
-0.45047,0.77081,-0.45047
-0.78992,0.55994,-0.24998
-0.78819,0.58865,-0.17959
-0.79103,0.57074,-0.22029
-0.79996,0.59997,-0.0099995
-0.93981,0.11998,-0.31994
-0.59803,0.74754,0.28905
-0.29967,0.909,-0.28968
-0.61947,0.57951,-0.52955
-0.43943,0.78897,-0.42944
-0.9095,0.3698,-0.1899
-0.49012,0.87022,-0.050013
-0.29049,0.9416,0.17029
-0.95291,0.25077,-0.17052
-0.60287,0.79378,-0.080383
-0.78141,0.42076,-0.46083
-0.85569,0.3184,0.40795
-0.88261,0.39116,-0.26077
-0.56608,0.70512,0.42704
-0.5997,0.70965,-0.36982
-0.80044,0.58032,0.15008
-0.7589,0.37945,0.52923
-0.46988,0.85979,-0.19995
-0.49965,0.82942,0.24983
-0.96377,0.25098,0.090353
-0.87996,0.40998,-0.23999
-0.7403,0.54022,0.40016
-0.77717,0.57789,0.24909
-0.84793,0.49878,-0.17956
-0.72022,0.47014,-0.51015
-0.86112,0.43056,-0.27035
-0.87231,0.43114,0.23061
-0.6743,0.70449,-0.22141
-0.96976,0.19995,0.13997
-0.73908,0.64919,0.17978
-0.8427,0.24077,0.48154
-0.41872,0.90724,-0.039879
-0.73893,0.51925,0.42938
-0.5583,0.82748,-0.059818
-0.92101,0.35039,-0.17019
-0.94416,0.20089,0.26115
-0.87746,0.32905,-0.34899
-0.5212,0.71164,0.47108
-0.3205,0.89138,-0.3205
-0.70613,0.61662,-0.34809
-0.27978,0.95923,-0.039968
-0.56983,0.80976,-0.13996
-0.93135,0.31045,-0.19028
-0.74576,0.66621,0
-0.62112,0.66119,0.42076
-0.62231,0.5922,-0.5119
-0.62884,0.67875,-0.3793
-0.55152,0.82226,-0.14039
-0.87873,0.45933,-0.12981
-0.39106,0.91247,0.12033
-0.6279,0.76743,-0.12957
-0.67226,0.62209,0.40135
-0.92106,0.37043,-0.12014
-0.8408,0.54051,0.030029
-0.74888,0.65901,-0.069895
-0.95828,0.25953,-0.11978
-0.57744,0.64713,-0.49779
-0.50997,0.81996,-0.25999
-0.44042,0.83079,0.34032
-0.93028,0.3301,-0.16005
-0.71996,0.55997,0.40998
-0.90308,0.34116,-0.26089
-0.92842,0.18968,-0.31946
-0.64254,0.71282,-0.28111
