0.444,0.444,0.444,0.444,0.444,0.444
0.45,-0.44,-0.44,-0.44,-0.44,-0.44
0.571,0.581,0.581,0.581,0.581,0.581
0.47323,0.47323,0.47323,0.47323,0.47323,0.47323
-0.28768,-0.28768,-0.28768,-0.28768,-0.28768,-0.28768
-0.18124,-0.18124,-0.18124,-0.18124,-0.18124,-0.18124
0.81268,0.81268,0.81268,0.81268,0.81268,0.81268
5
