0.216,0.206,0.196,0.126,0.136
-0.37,-0.47,-0.63,-0.7,-0.74
0.574,0.584,0.474,0.484,0.494
-0.79636,-0.79394,-0.92489,-0.79727,-0.77508
-0.21191,0.23328,0.22631,0.24036,0.33089
-0.50414,-0.4954,0.050853,-0.48544,-0.47193
-0.25836,-0.26423,-0.30128,-0.26633,-0.25892
10
0
49
