0.431,0.428,0.419,0.364,0.423,0.389,0.369,0.33,0.468,0.386,0.461,0.301,0.341,0.417,0.443,0.379,0.333,0.472,0.447,0.498,0.427,0.356,0.315,0.373,0.36,0.387,0.417,0.342,0.414,0.384,0.445,0.32,0.448,0.355,0.429,0.464,0.474,0.347,0.335,0.383,0.359,0.382,0.386,0.472,0.442,0.487,0.457,0.43,0.447,0.368,0.356,0.424,0.437,0.422,0.385,0.457,0.43,0.37,0.308,0.36,0.493,0.443,0.459,0.444,0.302,0.42,0.307,0.32,0.361,0.411,0.444,0.494,0.43,0.418,0.403,0.39,0.41,0.477,0.437,0.419,0.478,0.428,0.388,0.429,0.437,0.447,0.389,0.317,0.315,0.387,0.367,0.358,0.343,0.327,0.318,0.416,0.366,0.362,0.311,0.416
0.266,0.24,0.282,0.204,0.189,0.115,0.224,0.178,0.209,0.259,0.232,0.251,0.188,0.209,0.158,0.101,0.182,0.101,0.255,0.19,0.193,0.138,0.186,0.285,0.182,0.245,0.243,0.25,0.129,0.128,0.154,0.274,0.181,0.28,0.111,0.17,0.255,0.152,0.273,0.296,0.101,0.271,0.194,0.14,0.215,0.19,0.248,0.279,0.229,0.21,0.181,0.161,0.125,0.138,0.177,0.223,0.128,0.279,0.16,0.125,0.121,0.2,0.285,0.162,0.168,0.244,0.143,0.288,0.238,0.126,0.187,0.26,0.266,0.293,0.174,0.171,0.234,0.272,0.272,0.212,0.254,0.293,0.141,0.248,0.184,0.128,0.141,0.224,0.13,0.279,0.101,0.277,0.288,0.11,0.15,0.261,0.163,0.102,0.167,0.236
0.387,0.22,0.34,0.251,0.29,0.327,0.356,0.385,0.4,0.39,0.306,0.209,0.357,0.255,0.229,0.214,0.275,0.256,0.264,0.342,0.292,0.333,0.343,0.305,0.398,0.366,0.25,0.323,0.395,0.392,0.301,0.394,0.39,0.228,0.348,0.324,0.397,0.383,0.376,0.326,0.329,0.335,0.361,0.285,0.384,0.384,0.321,0.343,0.313,0.371,0.337,0.398,0.299,0.229,0.378,0.272,0.206,0.284,0.227,0.31,0.361,0.259,0.239,0.222,0.363,0.347,0.278,0.302,0.327,0.227,0.301,0.275,0.33,0.3,0.297,0.225,0.276,0.335,0.221,0.351,0.219,0.398,0.229,0.335,0.385,0.224,0.316,0.324,0.201,0.21,0.365,0.222,0.266,0.33,0.221,0.254,0.345,0.215,0.251,0.202
0.91122,0.9213,0.98,0.97544,0.96508,0.93082,0.92152,0.9817,0.88429,0.96541,0.99519,0.92903,0.94511,0.92822,0.98308,0.94406,0.994,0.92077,0.92196,0.99472,0.93287,0.91569,0.94406,0.95572,0.93135,0.97836,0.98847,0.95618,0.96446,0.90126,0.9359,0.93277,0.86154,0.82345,0.94817,0.91391,0.97176,0.89562,0.92613,0.96562,0.99755,0.92864,0.84546,0.94057,0.97376,0.98946,0.9806,0.97634,0.96441,0.97537,0.96624,0.9923,0.95149,0.92615,0.87247,0.97191,0.95172,0.9635,0.93915,0.96578,0.9437,0.90113,0.9764,0.95767,0.91017,0.96789,0.9276,0.95555,0.96653,0.94346,0.98891,0.92397,0.92738,0.85868,0.9484,0.90529,0.93627,0.95517,0.94937,0.96733,0.88733,0.9605,0.95823,0.99581,0.97212,0.95995,0.89494,0.98655,0.98066,0.91693,0.88293,0.95099,0.94371,0.89044,0.94416,0.93142,0.95758,0.95734,0.94621,0.94047
0.27488,-0.31057,0.038732,-0.21523,0.10479,0.22352,-0.26829,-0.089547,-0.33489,-0.26046,-0.027599,0.19075,-0.052683,-0.061301,0.038702,0.27624,0.10116,0.029828,0.26245,-0.0037829,-0.099549,-0.25472,0.18518,0.21446,0.023434,-0.18814,-0.083427,0.24818,-0.013209,0.16139,0.096712,0.23886,0.35729,0.3789,0.18477,0.13155,0.038707,-0.23978,-0.29881,-0.12766,0.019306,-0.15693,0.35294,-0.31362,-0.078461,0.11374,-0.0057281,0.19335,0.072463,-0.12096,0.10631,-0.084676,0.04196,0.10321,-0.3482,-0.12861,-0.032789,0.14947,-0.28921,-0.10953,-0.17375,-0.11775,-0.032239,-0.28543,0.22159,-0.17885,-0.23016,-0.13045,0.079141,-0.13853,0.10711,-0.24026,-0.24122,-0.30101,0.093622,-0.018823,0.30089,-0.13127,-0.1009,-0.22471,0.34721,0.060973,0.25682,-0.030939,0.12192,0.20851,-0.21881,-0.067001,0.022862,-0.21654,-0.20894,-0.27263,-0.026995,-0.18662,-0.31868,-0.17556,0.12145,-0.18243,-0.12776,0.2224
-0.1232,-0.11768,-0.14577,0.025434,0.12114,0.22643,0.27219,-0.11051,-0.11593,0.0031012,-0.053413,-0.25531,-0.010588,0.27362,0.17812,-0.16966,-0.040691,0.2883,0.28418,0.04342,0.28737,-0.29917,0.27035,0.19811,-0.29449,0.076412,-0.12589,0.008471,-0.045435,-0.29322,-0.25237,-0.11329,0.023035,0.20541,0.0085343,0.35755,-0.073411,0.36318,0.13591,0.17688,0.038238,0.002727,0.17548,-0.034827,-0.21139,-0.089357,-0.00011907,0.06442,0.22831,-0.032748,0.084139,-0.018989,0.28869,-0.3174,0.262,0.12312,-0.28436,-0.21896,-0.039042,0.064809,0.18433,0.35858,-0.13352,-0.027463,0.34826,-0.011455,-0.21387,0.081719,0.13987,0.25553,0.065583,0.20125,-0.11716,0.19855,0.052604,0.35743,0.032367,-0.1566,-0.19813,0.047915,-0.1717,0.25576,0.12163,-0.081481,0.17685,0.12486,0.21181,-0.12554,0.17172,0.31959,-0.28917,-0.054234,0.18983,0.38923,0.082439,-0.28748,-0.16189,0.060604,-0.26889,0.25683
-0.28097,-0.20225,-0.12983,-0.039217,0.20729,0.17982,0.068826,0.1266,-0.30405,0.011556,0.077298,0.18798,-0.3223,0.24452,-0.018354,0.060496,-0.0085912,-0.26109,-0.018827,-0.092947,0.19305,-0.084438,0.036909,-0.03677,-0.21285,0.039627,0.011003,-0.15511,-0.25994,0.27515,0.22592,0.24505,-0.35995,-0.36901,-0.25837,0.14011,-0.2209,-0.092103,0.18581,0.14139,-0.055312,0.33614,-0.36033,-0.1255,0.030726,-0.0071083,-0.19595,0.072317,-0.11197,-0.1815,0.2191,0.088356,-0.097827,0.17566,0.22114,0.15392,0.1109,-0.037306,0.18121,-0.226,-0.21278,-0.21336,-0.16669,-0.025293,0.034774,-0.17627,-0.20208,-0.25147,0.19996,-0.15934,-0.079328,-0.21919,-0.26086,0.36419,-0.29833,-0.22878,0.17839,-0.21422,0.22195,-0.10715,0.25023,0.091197,0.03244,0.027611,0.093975,-0.1394,0.32609,-0.080377,-0.091104,0.10101,-0.30522,0.13545,-0.26952,-0.14417,-0.014827,-0.13778,0.20515,-0.21574,0.12673,0.0099367
