0.34,0.24,0.53,0.22,0.67,0.12,0.08,0.19,0.39,0.49,0.28,0.75,0.51,0.5,0.41,0.05,0.17,0.48,0.17,0.47
-0.49,-0.55,0.22,-0.51,0.07,0.69,0.74,0.73,-0.36,-0.17,-0.42,-0.2,0,-0.36,-0.28,0.61,0.57,-0.33,-0.44,0.28
0,0,0,0,0,0,0,0,0,0,0,0,0,0,0,0,0,0,0,0
0.90079,0.94502,0.44089,0.9463,0.34346,0.81706,0.77475,0.71736,0.92532,0.83752,0.97612,0.047046,0.75128,0.13358,0.92001,0.93273,0.90729,0.22544,0.99996,0.78021
0,0,0,0,0,0,0,0,0,0,0,0,0,0,0,0,0,0,0,0
0,0,0,0,0,0,0,0,0,0,0,0,0,0,0,0,0,0,0,0
0.43425,0.32701,0.89756,0.32329,-0.93917,-0.57655,-0.63226,-0.69671,0.37919,0.54641,0.21722,0.99889,0.65999,-0.99104,0.3919,-0.36057,-0.4205,-0.97426,0.0092033,-0.62552
