0.42,0.47,0.23,0.43,0.35,0.3,0.57,0.5,0.58,0.49,0.07,0.08,0.35,0.06,0.45,0.52,0.14,0.67,0.68,0.07,0.55,-0.02,0.22,0.47,0.46,0.14,0.46,0.26,0.67,0.29,0.62,0.62,0.41,0.6,0.38,0.52,0.52,0.74,0.73,0.26,0.1,0.23,0.67,0.45,0.6,0.57,0.7,0.63,0.67,0.57
-0.42,-0.38,-0.55,-0.42,-0.49,-0.53,-0.2,0.32,-0.15,-0.32,-0.58,-0.63,-0.53,-0.57,-0.37,0.36,-0.62,-0.11,0.05,0.71,0.34,-0.54,0.71,-0.48,0.39,0.64,0.44,0.71,-0.21,0.66,0.06,0.35,-0.48,0.35,0.54,-0.39,0,0.23,0.27,-0.41,0.68,0.74,-0.26,-0.42,0.39,0.03,-0.02,0.15,0.1,0.14
0,0,0,0,0,0,0,0,0,0,0,0,0,0,0,0,0,0,0,0,0,0,0,0,0,0,0,0,0,0,0,0,0,0,0,0,0,0,0,0,0,0,0,0,0,0,0,0,0,0
0.86756,0.83269,0.94524,0.85554,0.90468,0.91817,0.72928,0.3684,0.69954,0.82051,0.98655,0.97208,0.89888,0.99121,0.86572,0.29226,0.95557,0.21151,0.31631,0.81979,0.31608,0.99982,0.71736,0.10639,0.27088,0.85803,0.20694,0.67059,0.073485,0.68892,0.63983,0.43497,0.84501,0.47167,0.71178,0.84784,0.75128,0.22798,0.25226,0.9782,0.80756,0.64448,0.031906,0.074958,0.43497,0.71498,0.16425,0.57007,0.50579,0.63884
0,0,0,0,0,0,0,0,0,0,0,0,0,0,0,0,0,0,0,0,0,0,0,0,0,0,0,0,0,0,0,0,0,0,0,0,0,0,0,0,0,0,0,0,0,0,0,0,0,0
0,0,0,0,0,0,0,0,0,0,0,0,0,0,0,0,0,0,0,0,0,0,0,0,0,0,0,0,0,0,0,0,0,0,0,0,0,0,0,0,0,0,0,0,0,0,0,0,0,0
0.49734,0.55374,0.32638,0.51774,0.42608,0.39619,0.68422,0.92967,0.71459,0.57163,0.16347,0.23465,0.43819,0.13233,0.50052,0.95634,0.29476,-0.97738,-0.94866,-0.57267,0.94873,0.019201,-0.69671,0.99432,0.96261,-0.5136,0.97835,-0.74183,-0.9973,-0.72484,0.76851,-0.90045,0.53474,-0.88177,-0.7024,0.53025,0.65999,-0.97367,-0.96766,0.20768,-0.58979,-0.76462,0.99949,-0.99719,-0.90045,0.69915,-0.98642,0.8216,0.86265,0.76934
