0.544,0.544,0.544,0.544,0.554,0.554,0.554,0.554,0.554,0.554,0.554,0.554,0.554,0.554,0.554,0.554,0.554,0.554,0.554,0.554,0.554,0.554,0.554,0.554,0.554,0.554,0.554
-0.282,-0.262,-0.262,-0.262,-0.272,-0.262,-0.272,-0.262,-0.272,-0.262,-0.272,-0.262,-0.272,-0.262,-0.272,-0.262,-0.272,-0.262,-0.272,-0.262,-0.272,-0.262,-0.272,-0.262,-0.272,-0.262,-0.262
0.349,0.329,0.339,0.329,0.349,0.349,0.349,0.349,0.349,0.349,0.349,0.349,0.349,0.349,0.349,0.349,0.349,0.349,0.349,0.349,0.349,0.349,0.349,0.349,0.349,0.349,0.349
0.33859,0.33767,0.33767,0.33745,0.33745,0.33745,0.33745,0.33745,0.33745,0.33745,0.33745,0.33745,0.33745,0.33745,0.33745,0.33745,0.33745,0.33745,0.33745,0.33745,0.33745,0.33745,0.33745,0.33745,0.33745,0.33745,0.33745
-0.016466,0.0035244,0.0035244,-0.036452,-0.036452,-0.036452,-0.036452,-0.036452,-0.036452,-0.036452,-0.036452,-0.036452,-0.036452,-0.036452,-0.036452,-0.036452,-0.036452,-0.036452,-0.036452,-0.036452,-0.036452,-0.036452,-0.036452,-0.036452,-0.036452,-0.036452,-0.036452
-0.13276,-0.15234,-0.15234,-0.15224,-0.15224,-0.15224,-0.15224,-0.15224,-0.15224,-0.15224,-0.15224,-0.15224,-0.15224,-0.15224,-0.15224,-0.15224,-0.15224,-0.15224,-0.15224,-0.15224,-0.15224,-0.15224,-0.15224,-0.15224,-0.15224,-0.15224,-0.15224
0.93138,0.92885,0.92885,0.92824,0.92824,0.92824,0.92824,0.92824,0.92824,0.92824,0.92824,0.92824,0.92824,0.92824,0.92824,0.92824,0.92824,0.92824,0.92824,0.92824,0.92824,0.92824,0.92824,0.92824,0.92824,0.92824,0.92824
4
